<?xml version="1.0" encoding="utf-8"?>
<!-- Generator: Adobe Illustrator 22.0.1, SVG Export Plug-In . SVG Version: 6.00 Build 0)  -->
<svg version="1.1" xmlns="http://www.w3.org/2000/svg" xmlns:xlink="http://www.w3.org/1999/xlink" x="0px" y="0px"
	 viewBox="0 0 88.6 62.2" style="enable-background:new 0 0 88.6 62.2;" xml:space="preserve">
<style type="text/css">
	.st0{display:none;}
	.st1{display:inline;}
	.st2{fill:#FFFFFF;}
	.st3{fill:none;stroke:#58595B;stroke-miterlimit:10;}
	.st4{fill:none;stroke:#58595B;stroke-width:0.6036;stroke-miterlimit:10;}
</style>
<g id="Layer_2">
</g>
<g id="Layer_1">
</g>
<g id="Layer_8">
</g>
<g id="Layer_7">
</g>
<g id="Layer_3_copy" class="st0">
</g>
<g id="Layer_6">
</g>
<g id="Layer_4">
	<g>
		<path class="st2" d="M24.2,1.2c0.1-0.1,0.1-0.1,0.1-0.1c0-0.2,0.1-0.3,0.2-0.4c0.1-0.1,0.1-0.3,0.3-0.3c0.1,0,0-0.1,0.1-0.1
			c0,0,0.1,0,0.1,0c0.1,0,0.2-0.1,0.3-0.2C25.6,0,25.8,0,26,0c12.2,0,24.4,0,36.5,0c0.2,0,0.4,0.1,0.6,0.1c0.1,0.2,0.4,0.1,0.5,0.3
			c0,0,0.1,0,0.2,0.1c0.1,0.2,0.3,0.3,0.4,0.5c0,0,0,0.2,0,0.2c0.2,0,0.1,0.2,0.1,0.3c0,0.1,0.1,0.2,0.1,0.4c0,3.7,0,7.4,0,11.2
			c0,0.3-0.1,0.5-0.1,0.8c0.1,0.3,0,0.6,0.1,0.9c0,0.1,0,0.2,0,0.3c0,0.1-0.1,0.3,0,0.4c0,0.1,0,0.1,0,0.2c0,2,0,4.1,0,6.1
			c0,0.2-0.1,0.4-0.1,0.6c0,0-0.1,0.1-0.1,0.1c0,0.3-0.3,0.5-0.5,0.6c-0.2,0.1-0.4,0.3-0.6,0.3c-0.2,0.2-0.5,0.1-0.7,0.1
			c-12.2,0-24.4,0-36.6,0c-0.2,0-0.4,0.1-0.5-0.1c0,0-0.1,0-0.1,0c-0.3,0-0.3-0.1-0.6-0.4c-0.1-0.1-0.2-0.1-0.2-0.1
			c0-0.1-0.1-0.1-0.1-0.1c0-0.1,0-0.2-0.1-0.3c0,0-0.1-0.1-0.1-0.1c0-0.1,0-0.2,0-0.3c-0.1-0.1,0-0.3,0-0.4c0-0.1,0-0.3,0-0.4
			c0-5.7,0-11.5,0-17.2C24.1,3,24.1,2.1,24.2,1.2z M62.3,2.1c-0.1,0-0.2,0-0.3,0c-8.7,0-17.3,0-26,0c-0.3,0-0.6,0.1-0.9-0.1
			c0,0-0.1,0-0.1,0c-0.1,0.1-0.2,0.1-0.3,0.1c-2.7,0-5.5,0-8.2,0c-0.1,0-0.2,0-0.3,0c0,6.4,0,12.8,0,19.2c12,0,24.1,0,36.1,0
			C62.3,14.9,62.3,8.5,62.3,2.1z"/>
		<path class="st2" d="M0.6,62.1c0-0.1,0-0.1-0.1-0.1c-0.3,0-0.4-0.3-0.5-0.5C0,61.4,0,61.3,0,61.2c0-0.4,0-0.7,0-1.1
			c0-0.2,0.1-0.4,0.1-0.7c0.2-0.2,0.1-0.5,0.3-0.7c0-0.2,0.3-0.3,0.3-0.5c0.1-0.1,0.2-0.2,0.3-0.3c0.1-0.1,0.2-0.2,0.3-0.3
			c0.1-0.1,0.2-0.3,0.4-0.3c0.2,0,0.2-0.2,0.4-0.3c0.1,0,0.2-0.1,0.3-0.1c0.1,0,0-0.2,0.2-0.1c0.1,0,0.2,0,0.2-0.1
			c0.1-0.2,0.2-0.1,0.4-0.2c0.1,0,0.1-0.2,0.3-0.1c0.1,0,0.2-0.1,0.3-0.1c0-0.2,0.2-0.1,0.3-0.2c0.1,0,0.1,0,0.2,0c0,0,0.1,0,0.1,0
			c0.1-0.2,0.2-0.1,0.4-0.2c0.1,0,0.2,0,0.4-0.1c-0.1-0.1-0.2-0.2-0.3-0.2c-0.1-0.1-0.2-0.1-0.3-0.2c-0.1-0.1-0.2-0.1-0.3-0.2
			c0-0.1-0.2-0.1-0.2-0.3c-0.1-0.1-0.1-0.2-0.2-0.3c-0.1-0.1-0.1-0.2-0.2-0.3c-0.1-0.2-0.1-0.3-0.2-0.5c0-0.1-0.2-0.2-0.1-0.3
			c-0.1-0.1-0.1-0.2-0.1-0.3c0-0.1,0-0.1,0-0.2C3,53,3,52.8,3,52.6c0-0.2,0-0.4,0-0.6c0-0.2,0-0.3,0.1-0.5c0,0,0-0.1,0-0.1
			c0-0.1,0-0.3,0.1-0.4c0.1-0.2,0.2-0.3,0.2-0.5c0-0.1,0.2-0.1,0.1-0.2c0-0.1,0.1-0.1,0.1-0.2c0.1-0.1,0.1-0.2,0.2-0.2
			c0.1,0,0.1-0.1,0.1-0.2c0-0.1,0.2-0.1,0.2-0.3c0-0.1,0.2-0.1,0.2-0.2c0.2,0,0.2-0.2,0.4-0.2C4.8,49,4.9,49,5,48.8
			c0-0.1,0.2,0,0.3-0.1c0.1-0.1,0.1-0.1,0.2-0.1c0.1,0,0.2-0.1,0.3-0.1c0,0,0.1,0,0.1,0c0.1-0.2,0.2-0.1,0.4-0.1c0.2,0,0.4,0,0.6,0
			c0.1,0,0.2,0,0.3,0.1c0,0,0.1,0,0.1,0c0.2,0,0.3,0,0.5,0.1c0.1,0,0.2,0.1,0.3,0.2c0.1,0.1,0.2-0.1,0.2,0.1c0.1,0,0.2,0.1,0.2,0.1
			c0,0.1,0.1,0.1,0.2,0.2c0.2,0.2,0.4,0.4,0.6,0.7c0.3,0.4,0.5,0.7,0.6,1.2c0,0,0,0.1,0,0.1c0.2,0.1,0.1,0.3,0.1,0.4
			c0,0.1,0.1,0.3,0.1,0.4c0,0.3,0,0.5,0,0.8c0,0.2-0.1,0.4-0.1,0.6c0,0.1-0.1,0.2-0.1,0.3c0,0.1-0.1,0.2-0.1,0.3
			c-0.2,0-0.1,0.2-0.2,0.3c0,0.1-0.2,0.1-0.2,0.2c0,0.1,0,0.2-0.2,0.2c-0.1,0-0.1,0.2-0.2,0.2C9.1,55,9,55.1,8.9,55.2
			c-0.1,0.1-0.2,0.1-0.2,0.2c0,0.1-0.1,0.1-0.2,0.1c0,0-0.1,0.1-0.1,0.1c-0.1,0-0.2,0.1-0.2,0.1c0,0.1-0.1,0.1-0.2,0.2
			c0.1,0,0.2,0,0.3,0c0.1,0,0.2,0.1,0.2,0.1c0.1,0,0.2,0,0.3,0.1c0,0,0.2,0,0.2,0c0.1,0.1,0.3,0,0.4,0.2c0.1,0,0.3,0,0.3,0.1
			c0.1,0.1,0.3,0.1,0.4,0.2c0.1,0,0.2,0.2,0.4,0.2c0.1,0,0.2,0.1,0.3,0.2c0.1,0.1,0.2,0,0.2,0.2c0,0,0,0,0,0
			c0.3,0.2,0.5,0.3,0.7,0.6c0.2,0.1,0.3,0.3,0.5,0.5c0,0,0.2,0.3,0.2,0.3c0,0.1,0.1,0.1,0.1,0.2c0.1,0.1,0.1,0.2,0.1,0.3
			c0,0.1,0,0.1,0.1,0.1c0,0,0,0,0,0.1c0,0.3,0.1,0.5,0.1,0.8c0,0,0.1,0,0.1,0c0,0.5,0,1,0,1.5c0,0-0.1,0.1-0.1,0.1
			c0,0.1,0,0.2-0.1,0.4c-0.1,0.1-0.1,0.2-0.3,0.2c0,0,0,0.1,0,0.1c-0.2,0-0.4,0.1-0.5,0.1c-0.2,0-0.4,0-0.6,0c-3,0-6,0-9,0
			c-0.3,0-0.6,0-1,0C1.2,62.2,0.9,62.1,0.6,62.1z"/>
		<path class="st2" d="M83.5,55.9c0.2,0,0.4,0.1,0.6,0.1c0.1,0,0.2,0.1,0.2,0.1c0.1,0,0.2,0,0.3,0.1c0.2-0.1,0.2,0.1,0.3,0.1
			c0.1,0,0.2,0,0.4,0.1c0,0.2,0.2,0.1,0.3,0.2c0.1-0.1,0.1,0.1,0.2,0.1c0.1,0,0.2,0,0.3,0.1c0,0.1,0.1,0.1,0.2,0.1
			c0.1,0,0.1,0.2,0.2,0.2c0.1,0,0.2,0.1,0.2,0.1c0.1,0.1,0.2,0.1,0.2,0.1c0.1,0.1,0.1,0.2,0.2,0.2c0.1,0,0.2,0.1,0.3,0.2
			c0,0.1,0.2,0.2,0.2,0.3c0,0.1,0.1,0.1,0.2,0.2c0.1,0.1,0.2,0.2,0.2,0.3c0,0.2,0.1,0.3,0.2,0.4c0,0.1,0,0.3,0.1,0.4
			c0.1,0.1,0,0.3,0.1,0.4c0.1,0.5,0,1,0.1,1.5c0,0.3-0.2,0.6-0.5,0.7c-0.1,0-0.1,0.2-0.2,0.1c-0.1,0-0.2,0-0.3,0.1
			c-0.1,0-0.2,0-0.3,0c-3.5,0-7,0-10.4,0c-0.3,0-0.6-0.1-0.9-0.2c0,0-0.1,0-0.1-0.1c0-0.1-0.1-0.1-0.2-0.2c-0.1,0-0.1-0.2-0.1-0.3
			c0-0.1,0-0.2-0.1-0.2c0,0,0-0.1,0-0.1c0-0.3,0-0.6,0-0.9c0,0,0-0.1,0-0.1c0.1-0.2,0.1-0.3,0.1-0.5c0-0.2,0-0.4,0.1-0.6
			c0.2-0.1,0.1-0.4,0.3-0.5c0,0,0-0.1,0.1-0.1c0.1-0.1,0-0.2,0.2-0.2c0-0.1,0.1-0.2,0.2-0.2c0.1-0.2,0.3-0.3,0.4-0.5
			c0.1-0.1,0.2-0.2,0.3-0.2c0.2-0.1,0.2-0.3,0.4-0.3c0-0.2,0.2-0.1,0.3-0.2c0.1-0.1,0.3-0.1,0.4-0.2c0.1-0.1,0.2-0.1,0.4-0.2
			c0.1,0,0.2-0.2,0.3-0.1c0.1-0.1,0.2,0,0.3-0.2c0-0.1,0.2,0,0.3-0.1c0.1-0.1,0.3,0,0.3-0.1c0.1-0.1,0.2,0,0.4-0.1
			c0.1-0.1,0.2,0,0.4,0c-0.2-0.1-0.2-0.2-0.4-0.2c-0.1,0-0.1-0.2-0.2-0.2c0-0.1-0.1-0.1-0.2-0.2c-0.2-0.2-0.3-0.4-0.5-0.5
			c-0.1-0.1-0.2-0.2-0.2-0.4c-0.2-0.1-0.2-0.2-0.2-0.4c-0.2-0.1-0.1-0.3-0.2-0.4c0,0,0-0.1-0.1-0.1c0,0-0.1-0.1-0.1-0.1
			c0-0.2-0.1-0.4-0.1-0.5c0-0.2,0-0.4,0-0.5c0-0.3,0-0.6,0.1-0.9c0,0,0-0.1,0-0.1c0.2-0.1,0.1-0.3,0.2-0.4c0.1-0.1,0.1-0.3,0.1-0.4
			c0-0.1,0.1-0.2,0.1-0.2c0.1-0.1,0.1-0.2,0.2-0.3c0.1-0.1,0.1-0.2,0.2-0.3c0.1-0.1,0.2-0.2,0.2-0.3c0.1-0.1,0.2-0.1,0.3-0.2
			c0.1,0,0.2-0.1,0.2-0.1c0-0.1,0.1-0.1,0.2-0.1c0,0,0.1-0.1,0.1-0.1c0.1-0.1,0.2-0.1,0.3-0.1c0,0,0-0.1,0.1-0.1
			c0.2,0,0.3-0.1,0.5-0.1c0,0,0.1,0,0.1,0c0.1-0.1,0.2-0.1,0.4-0.1c0.2,0,0.4,0,0.6,0c0.1,0,0.2,0,0.3,0.1c0,0,0.1,0,0.1,0
			c0.1,0,0.3,0,0.4,0.1c0.1,0.1,0.3,0.2,0.4,0.2c0,0.2,0.2,0.1,0.3,0.2c0.1,0.1,0.2,0.1,0.3,0.2c0.1,0.1,0.2,0.1,0.2,0.2
			c0,0.1,0.1,0.1,0.2,0.2c0.1,0,0.1,0.2,0.1,0.2c0.1,0.1,0.1,0.2,0.2,0.2c0.1,0.1,0.1,0.2,0.1,0.2c0,0.1,0.2,0.1,0.2,0.3
			c0,0.1,0.1,0.2,0.1,0.3c0.1,0.1,0.1,0.3,0.1,0.4c0,0.1,0,0.1,0,0.2c0.1,0.2,0.1,0.4,0.1,0.6c0,0.2,0,0.5,0,0.7
			c0,0.1,0,0.1-0.1,0.2c0,0.1-0.1,0.2-0.1,0.3c0,0.2,0,0.4-0.2,0.5c0,0,0,0,0,0.1c0,0.1,0,0.2-0.1,0.3c0,0.1-0.1,0.2-0.1,0.2
			c-0.1,0.1-0.1,0.2-0.2,0.2c0,0.1-0.1,0.2-0.2,0.3c-0.1,0.1-0.1,0.2-0.2,0.2c-0.1,0-0.1,0.2-0.2,0.2c-0.1,0.2-0.4,0.3-0.6,0.4
			C83.6,55.7,83.6,55.8,83.5,55.9z"/>
		<path class="st2" d="M45.9,62.1c-0.1-0.1-0.1-0.1-0.1-0.1c-0.2,0-0.3-0.1-0.3-0.2c-0.2-0.4-0.2-0.4-0.2-0.8c0-0.2,0-0.3,0-0.5
			c0-0.4,0.1-0.7,0.1-1.1c0,0,0-0.1,0-0.1c0.2-0.1,0.1-0.4,0.2-0.5c-0.1-0.1,0.2-0.1,0.1-0.2c0-0.1,0.1-0.2,0.1-0.2
			c0.1-0.1,0.1-0.2,0.2-0.2c0,0,0.1,0,0.1-0.1c0.1-0.2,0.3-0.4,0.5-0.5c0.1-0.1,0.2-0.1,0.2-0.2c0.1-0.1,0.2-0.1,0.3-0.2
			c0.2-0.1,0.3-0.3,0.5-0.3c0.1-0.2,0.3-0.2,0.4-0.2c0-0.2,0.2-0.1,0.2-0.2c0-0.1,0.2,0,0.2-0.1c0.1,0,0.2,0,0.2,0
			c0.2,0,0.3-0.2,0.5-0.2c0.1-0.1,0.1,0,0.2-0.1c0,0,0.1,0,0.1,0c0.4-0.2,0.4-0.2,0.7-0.2c-0.1-0.1-0.2-0.1-0.2-0.2
			c-0.1-0.1-0.2-0.1-0.3-0.2c-0.1-0.1-0.1-0.2-0.3-0.2c-0.1,0-0.1-0.2-0.2-0.2c-0.1,0,0-0.2-0.2-0.2c-0.1-0.3-0.3-0.5-0.4-0.8
			c-0.1-0.1-0.1-0.3-0.2-0.4c-0.1-0.1-0.1-0.3-0.1-0.5c0,0,0-0.1,0-0.1c-0.2-0.1-0.1-0.3-0.1-0.4c0-0.3,0-0.5,0-0.8
			c0-0.1-0.1-0.3,0.1-0.4c0,0,0-0.1,0-0.1c0-0.1,0-0.2,0.1-0.3c0-0.1,0-0.2,0.1-0.3c0,0,0-0.1,0-0.1c0.1-0.1,0-0.2,0.2-0.3
			c0-0.1,0.1-0.2,0.1-0.3c0.1-0.1,0.2-0.2,0.2-0.3c0.1-0.1,0.2-0.3,0.3-0.4c0.1-0.1,0.2-0.2,0.4-0.3c0.1-0.1,0.2-0.2,0.3-0.2
			c0.1-0.2,0.2-0.2,0.4-0.2c0-0.2,0.1-0.1,0.2-0.2c0.1,0,0.2,0,0.3,0c0,0,0.1,0,0.1,0c0.1-0.1,0.2-0.1,0.3-0.1c0.2,0,0.5,0,0.7,0
			c0.1,0,0.2,0,0.3,0.1c0,0,0.1,0,0.1,0c0.2,0,0.4,0,0.6,0.2c0.2,0,0.3,0.1,0.4,0.2c0.1,0,0.2,0.1,0.2,0.2c0.1,0.1,0.2,0.2,0.3,0.2
			c0.1,0,0.1,0.2,0.2,0.2c0.1,0,0,0.2,0.1,0.2c0.1,0,0,0.2,0.2,0.2c0.1,0.2,0.1,0.4,0.3,0.5c0,0.3,0.2,0.4,0.2,0.7
			c0.2,0.2,0.1,0.4,0.2,0.6c0,0.1,0,0.2,0,0.4c0,0.2,0,0.4,0,0.6c0,0.2-0.1,0.4-0.1,0.6c-0.2,0.2-0.1,0.6-0.3,0.8c0,0,0,0.1,0,0.1
			c-0.1,0.1,0,0.3-0.2,0.3c0,0.1,0,0.2-0.1,0.3c-0.2,0.1-0.2,0.4-0.5,0.5c0,0.1-0.1,0.2-0.2,0.2c0,0,0,0.1-0.1,0.1
			c-0.1,0-0.1,0-0.1,0.1c0,0-0.1,0.1-0.1,0.1c-0.2,0-0.2,0.2-0.3,0.2c0.2,0,0.5,0.1,0.7,0.1c0,0,0,0.1,0,0.1c0.1,0,0.2,0,0.3,0.1
			c0.2,0,0.3,0.1,0.4,0.2c0.1,0.1,0.3,0.1,0.4,0.2c0.2,0,0.4,0.1,0.6,0.2c0.2,0.1,0.3,0.2,0.5,0.3c0,0.1,0.1,0.1,0.2,0.1
			c0.1,0,0.2,0,0.2,0.2c0,0.1,0.2,0.1,0.2,0.1c0,0.1,0.2,0.1,0.2,0.2c0,0.1,0.1,0.1,0.2,0.2c0,0.1,0,0.2,0.1,0.1
			c0.1,0.2,0.3,0.2,0.3,0.4c0.1,0.2,0.2,0.3,0.3,0.5c0,0.1,0.1,0.1,0.1,0.2c0,0.1,0.1,0.1,0.1,0.1c0,0.3,0.1,0.6,0.1,0.9
			c0,0,0,0.1,0,0.1c0.2,0.4,0.1,0.7,0.1,1.1c0,0,0,0.1,0,0.1c0,0.1-0.1,0.2-0.1,0.3c-0.1,0.2-0.2,0.4-0.4,0.5
			c-0.1,0-0.2,0.2-0.3,0.1c-0.1,0-0.3,0-0.4,0.1c-0.1,0-0.3,0-0.4,0c-2.9,0-5.8,0-8.6,0C47.4,62.2,46.6,62.3,45.9,62.1z"/>
		<path class="st2" d="M38.3,55.9c0.2,0,0.4,0,0.6,0.1c0.2,0.1,0.3,0.1,0.5,0.1c0.1,0,0.2,0,0.3,0.1c0.1,0.1,0.2,0.1,0.3,0.1
			c0,0,0.1,0,0.1,0c0.1,0,0.2,0,0.2,0.1c0,0,0.1,0,0.1,0c0.1,0,0.2,0,0.2,0.1c0.1,0,0.1,0.2,0.2,0.1c0.1,0,0.2,0,0.2,0.1
			c0.1,0.2,0.3,0.2,0.5,0.3c0.1,0.1,0.3,0.3,0.5,0.3c0,0.2,0.2,0.2,0.3,0.3c0.1,0,0.1,0.2,0.3,0.2c0.1,0.3,0.5,0.5,0.5,0.8
			c0.2,0.1,0.2,0.3,0.2,0.5c0,0,0,0,0,0c0.2,0.1,0.1,0.4,0.1,0.5c0.1,0.5,0,1,0.1,1.5c0,0.2-0.1,0.3-0.2,0.5C43,61.9,43,62,42.7,62
			c0,0,0,0,0,0c0,0,0,0.1,0,0.1c-0.2,0-0.4,0.1-0.6,0.1c-0.2,0-0.4,0-0.6,0c-3.3,0-6.6,0-9.9,0c-0.2,0-0.4,0-0.6-0.1
			c-0.2-0.1-0.5-0.2-0.6-0.5c0,0,0-0.1,0-0.1c0-0.2-0.2-0.4-0.1-0.7c0-0.1,0-0.2,0-0.4c0-0.1,0-0.2,0.1-0.4c0.1-0.1,0.1-0.3,0.1-0.4
			c0-0.2,0-0.4,0.1-0.6c0.2-0.1,0.1-0.3,0.2-0.4c0.1-0.1,0.1-0.3,0.3-0.4c0.1-0.1,0.1-0.2,0.2-0.3c0.1,0,0.1-0.2,0.2-0.2
			c0-0.1,0.1-0.2,0.2-0.2c0-0.1,0.1-0.1,0.2-0.2c0.1-0.1,0.2-0.1,0.3-0.2c0.1-0.1,0.2-0.1,0.3-0.2c0.1-0.1,0.2-0.1,0.4-0.2
			c0.2-0.1,0.4-0.1,0.5-0.3c0.3,0,0.5-0.3,0.7-0.3c0.2-0.1,0.4-0.2,0.6-0.2c0,0,0-0.1,0.1-0.1c0,0,0,0,0.1-0.1
			c0.2,0,0.4-0.1,0.6-0.1c0,0-0.2-0.1-0.2-0.2c0,0-0.1-0.1-0.1-0.1c0,0,0-0.1-0.1-0.1c-0.2,0-0.2-0.1-0.3-0.2
			c-0.1-0.1-0.2-0.1-0.2-0.2c-0.1-0.1-0.2-0.2-0.2-0.3c0-0.1-0.1-0.1-0.1-0.1c0-0.1,0-0.2-0.1-0.2c0.1-0.1-0.1-0.1-0.1-0.2
			c0-0.1-0.1-0.1-0.1-0.2c0-0.1-0.1-0.1-0.1-0.2c0-0.1-0.1-0.2-0.1-0.3c0-0.1,0-0.2-0.1-0.2c0,0,0-0.1,0-0.1c0-0.2-0.1-1.2-0.1-1.4
			c0.1-0.2,0-0.4,0.1-0.5c0.1-0.1,0.1-0.4,0.2-0.5c0.1-0.2,0.1-0.4,0.3-0.5c0,0,0-0.1,0.1-0.1c0.1-0.1,0-0.2,0.2-0.2
			c0-0.1,0.1-0.2,0.2-0.2c0,0,0-0.1,0-0.1c0.1-0.2,0.3-0.4,0.5-0.5c0.1-0.1,0.2-0.2,0.3-0.2c0.1-0.1,0.2-0.2,0.4-0.2
			c0.2-0.2,0.4-0.2,0.6-0.2c0,0,0.1,0,0.1,0c0.1-0.2,0.3-0.1,0.4-0.1c0.2,0,0.4,0,0.6,0c0.1,0,0.2,0,0.3,0.1c0,0,0.1,0,0.2,0
			c0.1,0,0.3,0,0.4,0.1c0.1,0.1,0.2,0.2,0.4,0.2c0,0.2,0.3,0.1,0.4,0.3c0.1,0.1,0.3,0.2,0.4,0.3c0.1,0.1,0.1,0.2,0.2,0.2
			c0.1,0.1,0.1,0.2,0.2,0.3c0.1,0.1,0.1,0.2,0.2,0.3c0.1,0.1,0,0.3,0.2,0.3c0,0.1,0,0.2,0.1,0.3c0.1,0.2,0.2,0.5,0.2,0.7
			c0,0,0,0.1,0,0.1c0.2,0.1,0.1,0.3,0.1,0.4c0,0.3,0,0.5,0,0.8c0,0.1,0,0.3-0.1,0.4c0,0,0,0.1,0,0.2c0,0.1-0.1,0.4-0.2,0.6
			c0,0,0,0.1,0,0.1c0,0.1,0,0.2-0.1,0.3c-0.1,0.1-0.2,0.4-0.3,0.5c-0.1,0,0.1,0.2-0.1,0.2c-0.1,0-0.1,0.1-0.2,0.2
			c-0.1,0.1-0.1,0.2-0.2,0.2c-0.1,0-0.1,0.1-0.2,0.2c-0.2,0.1-0.3,0.2-0.5,0.3C38.4,55.8,38.3,55.8,38.3,55.9z"/>
		<path class="st2" d="M19.4,56.1c0,0,0-0.1,0-0.1c0.2,0,0.5-0.1,0.7-0.1c-0.1,0-0.1-0.2-0.2-0.2c-0.1,0-0.2-0.1-0.3-0.2
			c-0.1-0.1-0.2-0.2-0.3-0.2c-0.1,0-0.1-0.2-0.2-0.2C19,55,19,54.9,19,54.9c0-0.1-0.2-0.1-0.2-0.2c-0.1,0,0-0.2-0.2-0.2c0,0,0,0,0,0
			c0-0.1-0.1-0.2-0.1-0.3c0-0.1-0.2-0.1-0.1-0.2c0-0.1,0-0.2-0.1-0.3c-0.1-0.1-0.1-0.3-0.2-0.4c0,0,0-0.1,0-0.1c0-0.3,0-0.5-0.1-0.8
			c-0.1-0.2,0.1-0.4,0.1-0.6c0-0.2,0-0.4,0-0.5c0.1-0.1,0-0.3,0.1-0.4c0.1-0.1,0.1-0.3,0.1-0.4c0.2,0,0.1-0.2,0.2-0.3
			c0.1-0.1,0.1-0.2,0.2-0.3c0.1-0.1,0.2-0.2,0.2-0.4c0.2,0,0.2-0.2,0.3-0.3c0.1,0,0.1-0.2,0.2-0.2c0.1,0,0.1-0.2,0.2-0.2
			c0.1,0,0.1-0.2,0.2-0.2c0.1,0,0.2,0,0.3-0.1c0.1-0.1,0.2-0.1,0.3-0.1c0.1,0,0.1,0,0.2,0c0.1,0,0.2,0,0.3-0.1c0,0,0.1,0,0.1,0
			c0.3,0,0.6,0,0.9,0c0,0,0.1,0,0.1,0c0.2,0.2,0.5,0.1,0.7,0.2c0.1,0.2,0.2,0.2,0.4,0.2c0,0.2,0.2,0.2,0.3,0.3
			c0.2,0.2,0.3,0.4,0.6,0.5c0,0.2,0.2,0.3,0.3,0.4c0,0.1,0.2,0,0.1,0.2c0,0.1,0,0.1,0.1,0.2c0,0,0,0.1,0.1,0.1
			c0.1,0.1,0.1,0.2,0.1,0.3c0,0,0,0.1,0,0.1c0.2,0.4,0.2,0.4,0.2,0.7c0,0.2,0.1,0.5,0.1,0.7c0,0.4-0.1,0.7-0.1,1.1
			c0,0.1-0.2,0.2-0.1,0.3c0,0.1,0,0.3-0.1,0.3c-0.2,0.1-0.1,0.2-0.2,0.4c0,0.1-0.1,0.1-0.1,0.1c0,0.1,0,0.1-0.1,0.2
			c-0.1,0.1-0.2,0.2-0.3,0.4c-0.1,0.1-0.2,0.1-0.3,0.3c-0.1,0-0.2,0.1-0.2,0.2c-0.1,0.1-0.2,0.1-0.2,0.1c-0.1,0-0.1,0.1-0.2,0.2
			c0.2,0,0.5,0.1,0.7,0.1c0.1,0,0.1,0,0.1,0.1c0,0,0,0.1,0.1,0c0.2,0,0.3,0.1,0.4,0.1c0.1,0,0.1,0.1,0.1,0.1c0.1,0,0.1,0,0.2,0
			c0.1,0,0.2,0,0.2,0c0.1,0.2,0.4,0.2,0.5,0.3c0.2,0.1,0.3,0.2,0.5,0.3c0.1,0,0.2,0.1,0.2,0.2c0.1,0.1,0.2,0.1,0.3,0.2
			c0.1,0.1,0.2,0.2,0.3,0.2c0,0,0.1,0,0.1,0c0,0.1,0.2,0.2,0.2,0.3c0.1,0.1,0.2,0.2,0.3,0.3c0,0.1,0.2,0.2,0.2,0.4
			c0.1,0.1,0.1,0.2,0.1,0.3c0,0.1,0.1,0,0.1,0.1c0,0.1,0,0.2,0,0.2c0.1,0.1,0.1,0.2,0.1,0.3c0,0.1,0,0.2,0.1,0.3c0,0,0,0.1,0,0.1
			c0,0.4,0.1,0.8,0.1,1.2c0,0.2,0,0.5-0.2,0.6c0,0.3-0.2,0.3-0.4,0.5c-0.1,0.1-0.2,0.1-0.3,0.1c-1,0.1-1.9,0.1-2.9,0.1
			c-2.7,0-5.4,0-8.1,0c-0.2,0-0.4,0-0.7-0.1c-0.1,0-0.1-0.1-0.2-0.1c-0.1,0-0.1-0.2-0.2-0.2c-0.1,0-0.1-0.2-0.2-0.2
			c-0.1-0.1-0.1-0.3-0.1-0.4C15,61,15,60.8,15,60.6c0-0.1,0-0.3,0.1-0.4c0-0.1,0-0.3,0-0.4c0,0,0-0.1,0-0.1c0.1-0.1,0.1-0.2,0.1-0.3
			c0-0.2,0-0.4,0.2-0.6c0.1-0.1,0.1-0.3,0.2-0.4c0.1-0.1,0.2-0.3,0.3-0.4c0.1-0.1,0.2-0.2,0.3-0.3c0.1-0.1,0.2-0.2,0.4-0.2
			c0.1-0.1,0.1-0.2,0.2-0.2c0-0.1,0.1-0.1,0.2-0.1c0.2-0.1,0.4-0.2,0.5-0.4c0,0,0.1,0,0.1,0c0.2-0.1,0.3-0.1,0.4-0.2c0,0,0,0,0,0
			c0.1,0,0.2,0,0.2-0.1c0,0,0.2,0,0.2-0.1c0.1,0,0.3,0,0.3-0.2c0.1,0,0.3,0,0.4-0.1C19.3,56.1,19.3,56.1,19.4,56.1z"/>
		<path class="st2" d="M68.5,55.9c0.3,0,0.5,0.1,0.7,0.1c0,0,0,0.1,0.1,0.1c0.2,0,0.3,0,0.5,0.1c0.1,0,0.1,0.2,0.3,0.1
			c0.1,0,0.2,0.1,0.3,0.1c0.1,0.2,0.4,0.1,0.5,0.3c0,0.1,0.2,0.1,0.2,0.1c0.1,0.1,0.2,0.1,0.3,0.2c0.1,0,0.2,0.1,0.3,0.2
			c0.1,0,0.2,0.1,0.3,0.2c0.1,0.1,0.2,0.1,0.3,0.2c0.1,0.1,0.2,0.2,0.3,0.2c0.2,0.2,0.6,0.7,0.7,0.9c0.1,0.1,0.1,0.3,0.2,0.4
			c0.1,0.1,0.1,0.2,0.1,0.4c0,0.1,0,0.3,0.1,0.4c0,0,0,0.1,0,0.1c0,0.4,0.1,0.7,0.1,1.1c0,0.2-0.1,0.4-0.1,0.6
			c-0.2,0.1-0.1,0.3-0.3,0.4c0,0-0.1,0.1-0.1,0.1c-0.1,0.1-0.3,0.2-0.5,0.2c-0.5,0.1-1,0.1-1.5,0.1c-3.2,0-6.3,0-9.5,0
			c-0.2,0-0.5,0-0.7-0.1c-0.2-0.1-0.4-0.2-0.5-0.4c0-0.2-0.2-0.2-0.1-0.4c0-0.1,0-0.3-0.1-0.4c0-0.1,0-0.3,0-0.4
			c0.1-0.2,0.1-0.5,0.1-0.7c0,0,0-0.1,0-0.1c0.2-0.1,0.1-0.3,0.1-0.4c0-0.1,0.1-0.2,0.1-0.4c0.2,0,0.1-0.2,0.2-0.3
			c0.1-0.1,0.1-0.2,0.2-0.3c0.1-0.1,0.2-0.2,0.2-0.4c0,0,0.1,0,0.1-0.1c0.1-0.1,0.2-0.2,0.2-0.3c0.1-0.1,0.2-0.1,0.3-0.2
			c0.1-0.1,0.2-0.1,0.3-0.2c0.3-0.1,0.6-0.4,0.9-0.5c0.2-0.1,0.3-0.2,0.5-0.2c0-0.2,0.2-0.1,0.3-0.1c0.1,0,0.2-0.1,0.3-0.1
			c0-0.2,0.2,0,0.2-0.1c0.1-0.1,0.2,0,0.2,0c0.1,0,0.1,0,0.1-0.1c0,0,0,0,0.1,0c0.2,0,0.4,0,0.7-0.1c-0.1,0-0.1-0.1-0.1-0.1
			c0-0.1-0.1,0-0.2-0.1c-0.1-0.1-0.2-0.2-0.3-0.3c-0.1-0.1-0.3-0.1-0.3-0.3c-0.1,0-0.2-0.2-0.3-0.3c-0.1,0-0.1-0.1-0.1-0.2
			c-0.2-0.1-0.2-0.3-0.2-0.4c-0.2-0.1-0.1-0.2-0.2-0.3c-0.1-0.1-0.1-0.3-0.1-0.4c0-0.1-0.1-0.3-0.1-0.4c0-0.2-0.1-0.4-0.1-0.6
			c0-0.3,0.1-0.6,0.1-0.9c0.1-0.1,0-0.3,0.2-0.4c0,0,0-0.2,0.1-0.2c0-0.1,0.1-0.2,0.2-0.3c0.1-0.1,0-0.2,0.1-0.3
			c0.2-0.2,0.3-0.5,0.5-0.6c0.1,0,0.1-0.2,0.2-0.2c0.1,0,0.1-0.1,0.2-0.2c0.1-0.1,0.2-0.2,0.4-0.2c0.1-0.2,0.2-0.2,0.3-0.2
			c0.1,0,0-0.2,0.2-0.1c0.1,0,0.1,0,0.2-0.1c0.1,0,0.2,0,0.3,0c0,0,0,0,0,0c0.3-0.3,0.6-0.1,1-0.1c0.1,0,0.1,0,0.2,0
			c0,0,0.1,0,0.1,0c0.1,0.2,0.2,0.1,0.4,0.1c0.1,0,0.2,0,0.3,0.1c0.2,0.2,0.5,0.2,0.6,0.4c0.1,0,0,0.2,0.2,0.1c0,0,0.1,0.1,0.2,0.2
			c0.1,0.1,0.1,0.2,0.2,0.2c0.1,0.1,0.1,0.2,0.2,0.2c0.1,0,0,0.2,0.1,0.2c0.1,0,0,0.2,0.1,0.2c0.1,0.1,0.2,0.2,0.2,0.3
			c0.1,0,0.1,0.1,0.1,0.2c0,0.1,0,0.2,0.1,0.2c0.1,0.1,0.1,0.3,0.2,0.5c0,0.2,0,0.3,0,0.5c0,0.1,0.1,0.2,0.1,0.3
			c0,0.3-0.1,0.7-0.1,1c-0.1,0.1,0,0.3-0.2,0.4c0,0,0,0.2-0.1,0.2c-0.1,0.1,0,0.3-0.2,0.3c0,0.1,0,0.3-0.1,0.3
			c-0.1,0.1-0.1,0.2-0.2,0.3c-0.1,0.1-0.1,0.2-0.2,0.3c-0.1,0.1-0.2,0.1-0.2,0.2c-0.1,0-0.1,0.2-0.2,0.2c-0.1,0.1-0.2,0.1-0.2,0.2
			c-0.1,0-0.2,0.1-0.2,0.1C68.6,55.8,68.5,55.8,68.5,55.9z"/>
		<path class="st2" d="M68.7,34.1c0,0-0.1,0-0.2,0c0,0.1,0,0.1,0,0.2c0.2,0,0.4,0.1,0.6,0.1c0,0,0,0,0,0.1c0.1,0,0.3,0.1,0.4,0.1
			c0.1,0,0.2,0,0.2,0.1c0.1,0,0.2,0,0.3,0.1c0.1,0,0.2,0,0.2,0.1c0,0,0.1,0,0.1,0c0.1,0.1,0.3,0.1,0.4,0.2c0.1,0.1,0.3,0,0.3,0.2
			c0.1,0,0.2,0.1,0.3,0.2c0.4,0.2,0.8,0.6,1.1,0.9c0.1,0.1,0.1,0.1,0.2,0.2c0.1,0.1,0.1,0.2,0.1,0.2c0,0.1,0.1,0.2,0.2,0.2
			c0,0.1,0,0.1,0.1,0.2c-0.1,0-0.2,0.1-0.3,0.1c-0.1,0,0,0.2-0.2,0.1c-0.1,0-0.1,0-0.2,0.1c-0.1,0-0.1,0.1-0.2,0.1
			c-0.2,0.1-0.3,0.3-0.5,0.4c-0.1,0.2-0.4,0.3-0.4,0.5c-0.2,0-0.2,0.2-0.2,0.3c-0.1,0.1-0.1,0.2-0.1,0.3c0,0.1-0.2,0.1-0.1,0.2
			c0,0.1,0,0.2-0.1,0.3c-0.1,0.1-0.1,0.1-0.1,0.2c0,0.1,0,0.2-0.1,0.2c0,0.1,0,0.2-0.1,0.2c0,0,0,0.1,0,0.2c0,0.1-0.1,0.2-0.2,0.2
			c-0.1,0-0.2,0-0.2,0c-2.1,0-4.3,0-6.4,0c-0.1-0.1-0.1-0.2-0.1-0.4c0-0.1,0-0.1-0.1-0.2c0,0,0-0.1,0-0.1c-0.1-0.4-0.3-0.7-0.5-1
			c0-0.1-0.2-0.1-0.1-0.2c-0.1-0.1-0.2-0.2-0.2-0.2c-0.1-0.1-0.1-0.1-0.2-0.2c-0.1,0-0.1-0.1-0.2-0.2c-0.1-0.1-0.1-0.1-0.2-0.2
			c-0.3-0.2-0.6-0.4-0.9-0.6c-0.1,0-0.1,0-0.2,0c-0.1,0-0.2-0.1-0.2-0.2c0-0.1,0.1-0.3,0.2-0.4c0,0,0.1-0.1,0.1-0.1
			c0.2-0.2,0.6-0.7,0.8-0.8c0.1-0.1,0.2-0.1,0.3-0.2c0.1-0.1,0.2,0,0.2-0.2c0.2,0,0.3-0.1,0.5-0.2c0.2-0.1,0.3-0.2,0.5-0.3
			c0.2,0,0.3-0.1,0.5-0.2c0.2-0.1,0.4-0.2,0.6-0.2c0.1-0.1,0.3-0.1,0.4-0.1c0.1-0.1,0.3,0,0.4-0.1c0,0,0-0.1,0-0.1
			c-0.1-0.1-0.2-0.1-0.3-0.2c-0.1-0.1-0.2,0-0.2-0.2c0-0.1-0.1-0.1-0.2-0.1c-0.1-0.1-0.1-0.1-0.2-0.2c-0.1-0.1-0.1-0.1-0.2-0.2
			c0-0.1,0-0.2-0.1-0.2c-0.2-0.1-0.2-0.4-0.3-0.6c0,0,0,0,0,0c0-0.1,0.1-0.3-0.1-0.3c0-0.1-0.1-0.2-0.1-0.4c0-0.1,0-0.3-0.1-0.4
			c0,0,0-0.1,0-0.2c0-0.4,0-0.7,0-1.1c0-0.1,0-0.2,0.1-0.3c0,0,0-0.1,0-0.1c0-0.2,0.1-0.3,0.1-0.5c0-0.1,0-0.2,0.1-0.1c0,0,0,0,0,0
			c0-0.1,0-0.2,0.1-0.3c0-0.1,0.2-0.1,0.1-0.2c0,0,0-0.1,0.1-0.2c0,0,0.1-0.1,0.1-0.1c0.1-0.1,0.2-0.2,0.2-0.2
			c0-0.2,0.2-0.1,0.2-0.2c0-0.1,0.2-0.1,0.2-0.2c0-0.1,0.2-0.1,0.2-0.2c0-0.1,0.2,0,0.2-0.1c0-0.1,0.2-0.1,0.2-0.1
			c0.2-0.1,0.4-0.2,0.6-0.3c0.2-0.1,0.4-0.1,0.6-0.1c0.2,0,0.5,0,0.7,0c0.1,0,0.2,0,0.3,0.1c0,0,0.2,0,0.2,0.1
			c0.1,0.1,0.2,0,0.4,0.1c0.1,0.1,0.3,0.1,0.3,0.2c0.1,0.1,0.2,0.1,0.3,0.2c0.1,0.1,0.2,0.1,0.3,0.2c0.3,0.3,0.5,0.6,0.6,0.9
			c0,0.1,0.1,0.1,0.1,0.2c0,0,0.1,0.1,0.1,0.1c0,0.3,0.2,0.4,0.2,0.7c0.2,0.2,0.1,0.4,0.2,0.6c0,0.1,0,0.2,0,0.3c0,0.2,0,0.4,0,0.6
			c0,0.2-0.1,0.4-0.1,0.6c-0.2,0.2-0.1,0.6-0.3,0.8c0,0.3-0.3,0.4-0.3,0.6c0,0.1-0.2,0.1-0.2,0.2c0,0.1-0.2,0.1-0.1,0.2
			c0,0.1-0.2,0-0.2,0.2c0,0.1-0.2,0.1-0.2,0.2c0,0-0.1,0-0.1,0C68.8,33.9,68.8,34.1,68.7,34.1z"/>
		<path class="st2" d="M15.5,37.3c0,0,0-0.1,0-0.1c0.1-0.1,0.2-0.3,0.3-0.5c0.1-0.1,0.2-0.1,0.2-0.2c0-0.1,0.1-0.2,0.2-0.2
			c0.1-0.1,0.2-0.2,0.3-0.2c0.3-0.2,0.6-0.5,0.9-0.6c0-0.2,0.3-0.1,0.4-0.2c0.1-0.1,0.3-0.1,0.4-0.2c0.1,0,0.2-0.2,0.3-0.2
			c0.1,0,0.2,0,0.2,0c0-0.2,0.2-0.1,0.3-0.1c0.1-0.1,0.2,0,0.3-0.1c0,0,0-0.1,0-0.1c0.2,0,0.4-0.1,0.6-0.1c0-0.1,0-0.1,0-0.2
			c-0.1,0-0.1,0-0.2,0c-0.1-0.1-0.1-0.2-0.2-0.2c0,0-0.1,0-0.1,0c0-0.1-0.1-0.1-0.2-0.2c-0.1,0-0.1-0.1-0.2-0.1c0,0-0.1,0-0.1-0.1
			c0-0.1-0.1-0.2-0.1-0.2c0-0.2-0.2-0.1-0.2-0.3c0-0.1-0.1-0.2-0.2-0.3c-0.1-0.3-0.3-0.5-0.3-0.8c0-0.1-0.2-0.1-0.1-0.3
			c0-0.1,0-0.2,0-0.3c0,0,0-0.1,0-0.1c0-0.3,0-0.6,0-0.9c0-0.2,0-0.5,0.2-0.7c0.1-0.1,0.1-0.2,0.1-0.3c0-0.1,0.2-0.2,0.1-0.3
			c0-0.1,0.1-0.2,0.2-0.3c0,0,0-0.1,0.1-0.1c0.1-0.2,0.5-0.8,0.7-0.9c0.1-0.1,0.2-0.1,0.3-0.2c0.1-0.1,0.2-0.2,0.3-0.2
			c0.1-0.1,0.3-0.1,0.4-0.2c0.1-0.1,0.3,0,0.4-0.1c0.1,0,0.2,0,0.3-0.1c0,0,0.1,0,0.1,0c0.4,0,0.7,0,1.1,0c0.2,0,0.3,0.1,0.5,0.2
			c0.1,0.1,0.2,0,0.3,0.1c0.1,0.1,0.2,0.1,0.3,0.1c0.1,0,0.1,0.1,0.2,0.2c0.1,0.1,0.2,0,0.2,0.1c0,0.1,0.2,0.1,0.2,0.2
			c0,0.1,0.1,0.1,0.2,0.2c0,0.1,0.1,0.1,0.2,0.2c0.1,0.1,0.1,0.2,0.2,0.2c0.1,0,0,0.2,0.2,0.2c0,0,0,0,0,0c0,0.1,0,0.3,0.1,0.4
			c0.1,0.1,0.1,0.2,0.1,0.3c0,0.1,0.2,0,0.1,0.2c0,0.1,0,0.2,0.1,0.3c0,0.1,0,0.2,0,0.3c0,0,0,0.1,0,0.1c0.1,0.1,0.1,0.2,0.1,0.4
			c0,0.2,0.1,0.4-0.1,0.6c0.1,0.1,0.1,0.3,0.1,0.4c0,0,0,0.1,0,0.1c-0.2,0.2-0.1,0.4-0.2,0.6c0.1,0.2-0.2,0.1-0.1,0.3
			c0,0.1-0.1,0.2-0.1,0.3c0,0.1-0.1,0.2-0.1,0.3c-0.1,0.1-0.2,0.2-0.2,0.3c0,0.1-0.2,0.1-0.2,0.2c-0.2,0-0.1,0.2-0.3,0.2
			c-0.1,0-0.1,0.2-0.2,0.2c-0.1,0-0.2,0.1-0.3,0.2c0,0-0.1,0.1-0.1,0.2c0.1,0,0.3,0,0.4,0c0.1,0,0.2,0.1,0.3,0.1c0,0,0.1,0,0.1,0
			c0.1,0.2,0.2,0.1,0.4,0.2c0.2,0,0.3,0.1,0.4,0.2c0.1,0.1,0.3,0.1,0.4,0.2c0,0,0,0,0.1,0c0.3,0.1,0.5,0.2,0.7,0.3
			c0.1,0,0.1,0.1,0.2,0.1c0.2,0.1,0.8,0.5,1,0.7c0.1,0.1,0.2,0.1,0.2,0.2c0,0.1,0.2,0.1,0.2,0.2c0,0.1,0.1,0.2,0.2,0.3
			c0.2,0.3,0.2,0.2,0.2,0.5c-0.1,0.1-0.2,0.1-0.3,0.1c-0.1,0-0.3,0.1-0.4,0.2c-0.2,0.2-0.4,0.2-0.6,0.4c-0.1,0.1-0.1,0.2-0.3,0.2
			c0,0.2-0.2,0.2-0.3,0.3c-0.1,0.1-0.2,0.2-0.2,0.3c-0.2,0-0.1,0.2-0.2,0.3c-0.1,0.1-0.2,0.2-0.2,0.4c-0.2,0.1-0.1,0.3-0.2,0.5
			c0,0,0,0.1,0,0.1c-0.1,0.1-0.1,0.1-0.1,0.2c0,0.1,0,0.2-0.1,0.4c-0.1,0-0.2,0-0.3,0c-2,0-4.1,0-6.1,0c-0.1,0-0.2,0-0.2,0
			c-0.1,0-0.1-0.1-0.2-0.1c0-0.1,0.1-0.3-0.1-0.3c0-0.1,0-0.2,0-0.3c-0.1-0.1,0.1-0.3-0.1-0.3c0-0.1-0.1-0.2-0.1-0.3
			c0-0.1-0.2,0-0.1-0.2c0-0.1,0-0.1-0.1-0.2c0-0.1-0.1-0.2-0.1-0.2c-0.2-0.1-0.2-0.3-0.3-0.4c-0.1-0.1-0.2-0.2-0.4-0.3
			c-0.2-0.2-0.4-0.3-0.6-0.5c-0.1-0.1-0.2,0-0.3-0.2C15.8,37.3,15.6,37.3,15.5,37.3z"/>
		<path class="st2" d="M39.1,34.4c0.1,0.1,0.1,0.1,0.2,0.1c0.1,0,0.3,0,0.4,0.1c0.1,0,0.1,0.1,0.2,0.1c0.1,0.1,0.3,0,0.4,0.2
			c0.1,0.1,0.3,0.1,0.4,0.2c0.1,0.1,0.2,0.1,0.3,0.1c0.1,0.1,0.1,0.2,0.3,0.1c0.1,0.2,0.4,0.1,0.4,0.4c0,0,0.1,0,0.1,0
			c0,0,0,0.1,0.1,0.1c0.1,0,0.1,0.1,0.2,0.2c0,0.1,0.2,0,0.2,0.2c0,0,0.1,0.1,0.1,0.1c0,0,0.1,0.1,0.1,0.1c0.1,0.1,0.2,0.2,0.3,0.3
			c0.1,0.1,0.1,0.3,0.1,0.4c0,0,0,0,0,0.1c-0.2,0-0.3,0-0.4,0.1c-0.1,0.1-0.2,0.1-0.3,0.1c-0.1,0,0,0.2-0.2,0.1
			c-0.1,0-0.1,0.1-0.2,0.2c0,0.1-0.1,0.1-0.2,0.1c-0.1,0.1-0.3,0.2-0.4,0.4c0,0.1-0.2,0.1-0.2,0.2c0,0.1-0.2,0.1-0.2,0.2
			c0,0.1-0.1,0.2-0.2,0.2c-0.1,0.1-0.1,0.2-0.2,0.3c0,0.1,0,0.1,0,0.2c-0.1,0.2-0.2,0.3-0.2,0.5c0,0.1,0,0.1,0,0.1
			c0,0.1,0,0.2-0.1,0.3c0,0,0,0.1-0.1,0.2c-0.1,0-0.1,0-0.2,0c-2.1,0-4.2,0-6.3,0c-0.1,0-0.1,0-0.2,0c-0.1,0-0.1-0.1-0.1-0.1
			c0-0.3-0.2-0.5-0.2-0.8c0,0,0,0,0,0c-0.1-0.3-0.4-1-0.6-1.1c-0.2,0-0.2-0.3-0.4-0.4c-0.1-0.2-0.2-0.2-0.3-0.3
			c-0.1-0.1-0.1-0.2-0.2-0.2c-0.1,0-0.2-0.2-0.3-0.2c-0.2,0-0.3-0.3-0.6-0.2c0,0-0.1-0.1-0.1-0.1c0,0,0.1-0.1,0.1-0.1
			c0-0.1,0-0.2,0.2-0.3c0.1,0,0-0.2,0.1-0.2c0.1,0,0.1-0.2,0.3-0.2c0.1,0,0.1-0.2,0.3-0.2c0-0.2,0.2-0.1,0.2-0.3
			c0-0.1,0.2-0.1,0.3-0.2c0-0.1,0.2-0.1,0.3-0.1c0.1,0,0-0.2,0.2-0.1c0.1,0,0.1-0.1,0.2-0.1c0,0,0,0,0,0c0.1,0,0.2-0.1,0.3-0.1
			c0-0.2,0.2-0.1,0.3-0.2c0.1,0.1,0.2-0.1,0.3-0.1c0.1,0,0.2-0.1,0.3-0.1c0.1,0,0-0.2,0.2-0.1c0.1,0,0.2,0,0.2-0.1
			c0.1,0,0.2,0.1,0.2-0.1c0,0,0.1,0,0.1,0c0.2,0,0.3,0,0.5-0.1c0,0,0.1,0,0.1-0.1c-0.2-0.1-0.3-0.2-0.5-0.3c-0.1,0-0.1-0.2-0.1-0.2
			c-0.2,0-0.1-0.1-0.2-0.2c-0.1-0.1-0.2-0.1-0.1-0.2c-0.1,0-0.1-0.2-0.2-0.3c0,0,0-0.1-0.1-0.1c-0.1,0,0-0.3-0.2-0.3
			c0-0.1-0.1-0.2-0.1-0.3c0-0.1-0.1-0.1-0.1-0.1c0-0.1,0-0.1-0.1-0.2c0,0,0-0.1,0-0.2c0,0,0-0.1,0-0.1c-0.2-0.1-0.1-0.3-0.1-0.4
			c0-0.1,0-0.3-0.1-0.4c-0.1-0.3,0.1-0.7,0.1-1c0,0,0-0.1,0-0.1c0.2-0.2,0.1-0.4,0.2-0.6c0-0.1,0.1-0.2,0.1-0.3
			c0-0.1,0.1-0.2,0.1-0.2c0.2,0,0-0.1,0.1-0.2c0.1-0.1,0.1-0.1,0.2-0.2c0.3-0.4,0.4-0.6,0.8-0.8c0-0.2,0.3-0.1,0.3-0.3
			c0-0.1,0.2-0.1,0.3-0.1c0.1,0,0.1-0.1,0.2-0.1c0.1,0,0.2,0,0.3-0.1c0,0,0,0,0.1,0c0.3-0.2,0.7-0.1,1-0.1c0.3,0,0.6,0.1,0.8,0.1
			c0,0,0.1,0.1,0.1,0.1c0.3,0,0.5,0.2,0.7,0.3c0.1,0,0.1,0.1,0.2,0.1c0,0,0.1,0.1,0.1,0.1c0.1,0.1,0.2,0.2,0.3,0.3
			c0,0.1,0.1,0.1,0.2,0.2c0,0,0,0.2,0.1,0.1c0,0,0.1,0,0.1,0.1c0,0.1,0.1,0.2,0.2,0.3c0.1,0.1,0,0.3,0.2,0.3c0,0.1,0,0.2,0.1,0.4
			c0,0,0.1,0.1,0.1,0.1c0,0.1,0.1,0.2,0.1,0.4c0,0.1,0,0.2,0.1,0.3c0,0.5,0,1,0,1.5c0,0.1,0.1,0.2-0.1,0.2c0,0,0,0.1,0,0.1
			c0,0.2-0.1,0.3-0.1,0.5c0,0.1,0,0.2-0.1,0.2c-0.1,0.1,0,0.3-0.2,0.3c0,0.1,0,0.3-0.2,0.3c0,0,0,0,0,0c0,0.1,0,0.2-0.1,0.3
			c-0.1,0.1-0.1,0.1-0.2,0.2c-0.1,0.1-0.1,0.2-0.2,0.2c-0.1,0-0.1,0.2-0.3,0.2c-0.1,0.1-0.2,0.1-0.3,0.2c0.1,0.2,0.3,0,0.3,0.1
			C38.9,34.5,39,34.4,39.1,34.4z"/>
		<path class="st2" d="M48.4,40.7c0-0.1,0-0.1,0-0.1c-0.1-0.1-0.1-0.3-0.1-0.4c0-0.1,0-0.3-0.2-0.4c-0.1-0.1-0.1-0.3-0.2-0.4
			c-0.1-0.1-0.1-0.3-0.3-0.4c-0.1-0.1,0-0.2-0.2-0.2c0-0.1-0.1-0.1-0.2-0.2c-0.1-0.1-0.1-0.2-0.2-0.3C47,38.1,47,38,46.9,37.9
			c-0.1-0.1-0.2-0.1-0.2-0.2c0-0.1-0.2,0-0.2-0.2c-0.3-0.1-0.5-0.3-0.8-0.3c-0.1-0.2,0-0.3,0-0.5c0.2-0.1,0.2-0.4,0.4-0.5
			c0.1-0.1,0.1-0.1,0.1-0.2c0.1,0,0.1,0,0.1-0.1c0,0,0.2-0.2,0.3-0.2c0,0,0.1-0.1,0.1-0.1c0-0.2,0.2-0.1,0.2-0.2
			c0.2,0,0.2-0.2,0.4-0.2c0.1-0.1,0.2-0.2,0.4-0.2c0.1,0,0.2-0.2,0.4-0.2c0.2-0.1,0.4-0.2,0.6-0.2c0.1,0,0.2-0.2,0.3-0.1
			c0.1,0,0.2-0.1,0.3-0.1c0.1,0,0.1-0.2,0.2-0.1c0.1,0,0.2,0,0.2,0c0.1,0,0.2,0,0.3,0c0,0,0.1-0.1,0.1-0.1c-0.2-0.1-0.4-0.2-0.5-0.4
			c-0.1-0.1-0.3-0.1-0.3-0.3c-0.2,0-0.1-0.2-0.3-0.2c0,0,0,0,0-0.1C49,33.2,49,33,48.9,33c0-0.2-0.2-0.2-0.2-0.4
			c0-0.1-0.1-0.3-0.2-0.4c-0.1-0.2-0.1-0.4-0.1-0.5c-0.1,0-0.1,0-0.1-0.1c0-0.5,0-1,0-1.5c0-0.1,0-0.2,0.1-0.3c0-0.2,0-0.3,0.1-0.5
			c0-0.1,0.2-0.1,0.2-0.2c0-0.1,0-0.2,0.1-0.3c0.2-0.1,0.1-0.4,0.3-0.4c0-0.2,0.1-0.2,0.2-0.3c0-0.2,0.2-0.1,0.2-0.3
			c0-0.1,0.2-0.1,0.2-0.2c0-0.1,0.2,0,0.2-0.2c0.2,0,0.2-0.1,0.3-0.2c0.1-0.1,0.2-0.1,0.3-0.2c0,0,0.1,0,0.1,0c0.1,0,0.3,0,0.4-0.1
			c0.1-0.1,0.3-0.1,0.5-0.1c0.2,0,0.4,0,0.7,0c0.2,0,0.3,0,0.5,0.1c0,0,0.1,0,0.2,0c0.1,0.1,0.3,0,0.4,0.1c0.1,0.1,0.2,0.1,0.3,0.1
			c0,0.2,0.2,0.1,0.3,0.2c0.1,0.1,0.2,0.1,0.3,0.2c0.1,0.1,0.2,0.2,0.3,0.3c0,0.1,0.1,0.1,0.2,0.2c0,0.1,0,0.2,0.1,0.2
			c0.1,0,0.1,0.1,0.1,0.1c0.1,0.1,0,0.3,0.2,0.3c0,0.1,0,0.2,0.1,0.3c0.1,0.1,0.1,0.1,0.1,0.3c0,0.1,0,0.3,0.1,0.3
			c0.2,0.2,0.1,0.4,0.1,0.6c0.1,0.2,0.1,0.4,0,0.7c0,0.2-0.1,0.4-0.1,0.7c0,0,0,0.1-0.1,0.1c-0.1,0-0.1,0.1-0.1,0.2
			c0,0.1,0,0.3-0.1,0.4c0,0.1-0.1,0.1-0.2,0.2c0,0.1,0,0.2-0.1,0.2c0,0,0,0,0,0.1c0,0.2-0.2,0.3-0.3,0.5c-0.1,0-0.1,0.1-0.2,0.2
			c-0.1,0-0.1,0.2-0.3,0.2c0,0.2-0.2,0.2-0.3,0.3c0,0.1-0.1,0.1-0.2,0.1c0,0.2,0.2,0.1,0.3,0.1c0.1,0,0.2,0,0.3,0.1
			c0.1,0,0.1,0.1,0.1,0.1c0.1,0,0.1,0,0.2,0c0.1,0.1,0.3-0.1,0.3,0.1c0.1,0,0.2,0.1,0.4,0.1c0.1,0,0.2,0.2,0.3,0.1
			c0,0.1,0.2,0,0.2,0.2c0,0,0.1,0,0.2,0c0.1,0.1,0.2,0.1,0.3,0.2c0.1,0,0.2,0,0.2,0.2c0,0,0,0,0,0c0.1,0,0.2,0,0.3,0.1
			c0.1,0.1,0.2,0.1,0.2,0.2c0.1,0.1,0.2,0.1,0.2,0.2c0.1,0,0.2,0.2,0.3,0.2c0.1,0.1,0.1,0.2,0.3,0.2c0,0,0,0,0,0
			c0,0.2,0.3,0.3,0.2,0.5c0,0,0.1,0.1,0.1,0.1c0,0,0,0.1-0.1,0.2c-0.2,0-0.3,0-0.4,0.2c-0.1,0.1-0.2,0-0.3,0.1
			c-0.1,0.1-0.2,0.1-0.3,0.2c-0.1,0.1-0.2,0.1-0.3,0.2c-0.1,0.1-0.2,0.1-0.2,0.2c-0.2,0-0.2,0.2-0.3,0.3c-0.1,0.1-0.2,0.2-0.3,0.3
			c-0.1,0.2-0.3,0.4-0.3,0.6c0,0.1-0.2,0-0.1,0.2c0,0.1,0,0.2-0.1,0.3c0,0.1-0.1,0.1-0.1,0.2c0,0.1-0.1,0.3-0.1,0.4
			c0,0.1-0.1,0.2-0.2,0.2c0,0-0.1,0-0.1,0C52.8,40.7,50.7,40.7,48.4,40.7C48.5,40.7,48.5,40.7,48.4,40.7z"/>
		<path class="st2" d="M20.3,48c-0.2,0.1-0.5,0.1-0.6,0.3c-0.1,0.1-0.2,0.1-0.3,0.1c-0.1,0.1-0.2,0.1-0.3,0.3c0,0.1-0.2,0.2-0.3,0.3
			c-0.1,0.1-0.2,0.2-0.3,0.3c-0.1,0.1-0.2,0.1-0.2,0.2c0,0.1-0.2,0.1-0.2,0.2c-0.1,0,0,0.3-0.2,0.3c0,0.1-0.1,0.2-0.1,0.3
			c0,0.1-0.2,0-0.1,0.2c0,0.1-0.1,0.1-0.1,0.2c0,0.1,0,0.2-0.1,0.2c0,0,0,0.1,0,0.1c0,0.1,0,0.2-0.1,0.4c-2.3,0-4.6,0-6.9,0
			c0-0.1,0-0.3-0.1-0.4c0,0,0-0.2,0-0.2c-0.1-0.1,0-0.3-0.2-0.4c-0.1-0.1-0.1-0.2-0.1-0.3c-0.1-0.1-0.1-0.2-0.2-0.3
			c-0.1-0.1-0.1-0.3-0.3-0.4c0-0.1-0.2-0.2-0.2-0.3c0-0.1-0.3-0.1-0.2-0.3c-0.3-0.1-0.4-0.4-0.7-0.4C8.5,48.2,8.2,48.2,8,48
			c-0.1-0.1-0.1-0.1-0.1-0.3c0.2-0.4,0.5-0.7,0.8-1c0.1-0.1,0.2-0.2,0.3-0.3c0.1-0.1,0.3-0.1,0.3-0.2c0,0,0.1,0,0.1,0
			c0-0.1,0.2,0,0.2-0.1c0-0.1,0.1,0,0.2-0.1c0.1-0.1,0.1-0.1,0.2-0.2c0,0,0,0,0.1,0c0.1,0,0.3-0.1,0.4-0.2c0.1-0.1,0.3-0.1,0.4-0.2
			c0.1-0.1,0.2-0.1,0.3-0.1c0.1,0,0.3,0,0.3-0.1c0.1,0,0.3,0,0.4-0.1c0.1,0,0.1,0,0.1,0c0.1-0.2,0.3-0.1,0.4-0.1
			c-0.1-0.1-0.2-0.3-0.4-0.3c0,0,0,0,0-0.1c-0.2-0.2-0.4-0.4-0.6-0.6c-0.1-0.1-0.1-0.3-0.2-0.3c-0.1-0.1-0.1-0.2-0.2-0.3
			c0.1-0.1-0.1-0.1-0.1-0.2c0-0.1,0-0.2-0.1-0.3c-0.2,0-0.1-0.2-0.1-0.2c-0.1-0.1-0.1-0.2-0.1-0.3c0-0.1,0-0.2-0.1-0.2
			c0,0,0-0.1,0-0.1c0-0.4,0-0.8,0-1.2c0-0.1,0-0.1,0.1-0.2c0-0.1,0.1-0.2,0.1-0.3c0-0.2,0-0.3,0.1-0.4c0,0,0-0.1,0-0.1
			c0-0.1,0.1-0.2,0.1-0.3c0.2,0,0.1-0.2,0.2-0.2c0.1-0.1,0.1-0.2,0.2-0.3c0.1-0.1,0.1-0.2,0.2-0.3c0.2-0.2,0.4-0.5,0.7-0.6
			c0.1,0.1,0.1-0.2,0.2-0.1c0.1,0,0.1-0.1,0.2-0.1c0.1,0,0.2-0.1,0.3-0.1c0.1,0,0.2,0,0.2-0.1c0,0,0,0,0.1,0c0.3,0,0.5-0.1,0.8-0.1
			c0.3,0,0.5,0,0.8,0c0.2,0,0.4,0,0.5,0.2c0.2,0,0.3,0.1,0.5,0.2c0.3,0.1,0.4,0.4,0.7,0.5c0,0.2,0.3,0.2,0.2,0.4
			c0,0,0.1,0.1,0.1,0.1c0,0.2,0.2,0.1,0.2,0.3c0,0.1,0.1,0.2,0.2,0.3c0.1,0.3,0.3,0.5,0.3,0.8c0,0.1,0,0.1,0.1,0.1c0,0,0,0,0,0.1
			c0,0.4,0.1,0.7,0.1,1.1c0,0.3-0.1,0.7-0.1,1c0,0-0.1,0-0.1,0.1c0,0.1,0,0.3-0.1,0.4c-0.1,0.2-0.2,0.3-0.2,0.5
			c-0.1,0-0.1,0.2-0.2,0.2c-0.1,0.1-0.2,0.2-0.2,0.3c0,0.1-0.2,0.1-0.2,0.3c-0.2,0-0.2,0.2-0.3,0.2c-0.1,0.1-0.2,0.2-0.3,0.2
			c-0.1,0.1-0.2,0.1-0.4,0.2c0.1,0,0.2,0,0.3,0c0,0,0.1,0,0.1,0c0.1,0.1,0.2,0.2,0.3,0.1c0.1,0,0.2,0,0.3,0.1c0.1,0,0.2,0.2,0.3,0.1
			c0.1,0.1,0.2,0,0.3,0.2c0,0,0.1,0,0.1,0c0.1,0,0.2,0.1,0.3,0.1c0.1,0,0,0.2,0.2,0.1c0.1,0,0.2,0,0.3,0.1c0.1,0.2,0.4,0.1,0.5,0.3
			c0,0,0.1,0,0.2,0.1c0,0,0,0.1,0.1,0.1c0.1,0,0.2,0.1,0.3,0.2c0.1,0.1,0.2,0.1,0.2,0.2c0,0,0.1,0.1,0.2,0.1c0,0,0.1,0.1,0.1,0.2
			c0.2,0.2,0.4,0.3,0.5,0.6c0,0.1,0.1,0.2,0.2,0.2C20.3,47.9,20.3,48,20.3,48z"/>
		<path class="st2" d="M77.8,43c0,0-0.1,0-0.1,0c0,0.1,0,0.2-0.1,0.3c-0.1,0.1-0.1,0.1-0.1,0.2c0,0.1,0,0.1,0,0.2
			c0,0.1-0.1,0-0.1,0.1c-0.2,0.3-0.4,0.6-0.8,0.8c-0.1,0.2-0.3,0.2-0.4,0.4c0.1,0,0.3,0,0.4,0.1c0.1,0,0.2,0,0.4,0.1
			c0.1,0,0.2,0,0.2,0.1c0,0,0.1,0,0.1,0c0.2,0,0.4,0,0.5,0.2c0,0,0,0,0,0c0.1,0,0.3,0.1,0.4,0.1c0.1,0,0.2,0.1,0.3,0.1
			c0.1,0,0.1,0.1,0.2,0.1c0.1,0,0.2,0.1,0.3,0.1c0,0.2,0.1,0.1,0.2,0.1c0.1,0,0.2,0.2,0.3,0.2c0.1,0,0.2,0.1,0.2,0.2
			c0.2,0.1,0.4,0.3,0.6,0.5c0.2,0.2,0.3,0.4,0.5,0.6c0.1,0.2,0.1,0.2-0.1,0.3c-0.1,0.1-0.2,0.1-0.3,0.2c-0.1,0-0.2,0.2-0.3,0.2
			c-0.1,0-0.2,0.1-0.3,0.2c-0.1,0.1-0.2,0.1-0.3,0.2c0,0.1-0.2,0.1-0.2,0.2c0,0.1-0.2,0.1-0.2,0.3c-0.3,0.2-0.4,0.5-0.5,0.7
			c-0.1,0.1-0.1,0.3-0.2,0.4c-0.1,0.1-0.1,0.3-0.1,0.4c0,0.1-0.1,0.2-0.1,0.3c0,0.1,0,0.2-0.1,0.3c-2.3,0-4.5,0-6.8,0
			C71,51.3,70.9,51.2,71,51c0-0.1,0-0.2-0.1-0.2c0,0,0,0,0,0c0-0.1,0-0.2-0.1-0.2c-0.1-0.1,0.1-0.2-0.1-0.2c-0.1,0,0-0.2-0.1-0.2
			c-0.1,0,0-0.2-0.1-0.2c0-0.1,0-0.2-0.1-0.3c-0.2-0.2-0.3-0.4-0.4-0.5c-0.2-0.2-0.3-0.4-0.5-0.5c-0.1-0.1-0.2-0.2-0.4-0.2
			c0,0-0.1,0-0.1-0.1c-0.2-0.2-0.4-0.2-0.6-0.3c0,0,0-0.1,0.1-0.2c0.1-0.2,0.2-0.3,0.3-0.5c0.1-0.1,0.1-0.2,0.2-0.3
			c0.1,0,0.1-0.2,0.3-0.2c0,0,0.1-0.1,0.1-0.1c0-0.1,0.1-0.1,0.2-0.2c0.1-0.1,0.2-0.2,0.3-0.2c0.1,0,0.1-0.2,0.2-0.1
			c0,0,0.1-0.1,0.2-0.1c0.1-0.1,0.2-0.1,0.3-0.2c0.1,0,0.1-0.2,0.3-0.1c0-0.1,0.2,0,0.2-0.2c0.1,0,0.2,0,0.2,0
			c0.2,0,0.3-0.2,0.4-0.2c0.1-0.1,0.2,0,0.2-0.1c0.1,0,0-0.2,0.2-0.1c0.1,0,0.1,0,0.2,0c0.1,0,0.2,0,0.3,0c0,0,0,0,0,0
			c0.1-0.2,0.3-0.1,0.5-0.1c-0.2-0.2-0.5-0.3-0.7-0.5c-0.2-0.2-0.4-0.3-0.5-0.6c0-0.1-0.1-0.1-0.2-0.2c-0.1-0.1,0-0.2-0.2-0.2
			c0,0,0,0,0,0c0-0.2-0.2-0.4-0.2-0.6c0-0.1,0-0.1,0-0.2c0-0.1,0-0.1-0.1-0.1c0,0,0-0.1,0-0.1c0-0.2-0.1-0.4-0.1-0.7
			c0-0.2,0-0.5,0-0.7c0-0.2,0-0.4,0.1-0.6c0.2-0.1,0.1-0.3,0.2-0.5c0.1-0.2,0.1-0.4,0.2-0.5c0.1-0.2,0.2-0.5,0.5-0.6
			c0-0.2,0.2-0.2,0.2-0.3c0-0.1,0.2-0.1,0.2-0.2c0.1-0.1,0.2-0.2,0.3-0.2c0.2-0.1,0.3-0.2,0.5-0.3c0.1,0,0.2,0,0.3-0.1
			c0,0,0.1,0,0.1,0c0.1,0,0.3-0.1,0.4-0.1c0.1,0,0.3,0,0.4,0c0.1,0,0.1,0,0.2,0c0.3,0,0.6,0.1,1,0.1c0,0,0,0.1,0.1,0.1
			c0.2,0,0.4,0.1,0.6,0.2c0.1,0.1,0.2,0,0.2,0.2c0,0.1,0.2,0.1,0.3,0.2c0.1,0.1,0.2,0.1,0.2,0.2c0,0.1,0.2,0.1,0.2,0.3
			c0,0.1,0.1,0.2,0.2,0.3c0.1,0.1,0.2,0.2,0.2,0.4c0,0.1,0.1,0.1,0.1,0.1c0,0.1,0.1,0.1,0.1,0.2c0,0.1,0.1,0.1,0.1,0.2
			c0,0.1,0.1,0.2,0.1,0.4c0,0.1,0,0.1,0,0.2c0.1,0.2,0.1,0.4,0.1,0.6c0,0.3,0,0.5,0,0.8c0,0.1,0.1,0.2-0.1,0.2c0,0,0,0,0,0.1
			C77.9,42.6,77.8,42.8,77.8,43z"/>
		<path class="st2" d="M47.8,51.3c-0.1,0.1-0.2,0.1-0.4,0.1c-0.9,0-1.8,0-2.8,0c-0.1,0-0.2,0.1-0.4,0c-0.1,0-0.3,0-0.5,0
			c-0.1,0-0.3,0-0.4,0c-0.1,0-0.3,0-0.4,0c-0.1,0-0.3,0-0.4,0c-0.2,0-0.3,0-0.5,0c-0.1,0-0.3,0-0.4,0c-0.1,0-0.3,0-0.4,0
			c-0.1,0-0.2,0-0.3-0.1c-0.1-0.1,0-0.3-0.1-0.4c0-0.2-0.2-0.3-0.2-0.5c0,0,0-0.1,0-0.1c0-0.1,0-0.2-0.1-0.2c0,0-0.1-0.1-0.1-0.1
			c0-0.1-0.1-0.2-0.2-0.2c-0.1,0,0-0.2-0.2-0.2c0-0.2-0.2-0.3-0.3-0.4c-0.1-0.1-0.3-0.1-0.2-0.3c-0.1,0-0.2-0.2-0.3-0.3
			c-0.2-0.1-0.4-0.3-0.7-0.4c-0.2-0.1-0.3-0.2-0.5-0.3c0-0.1,0.1-0.1,0.1-0.2c0-0.1,0-0.2,0.1-0.2c0,0,0.1,0,0.1,0
			c0.1-0.2,0.2-0.4,0.4-0.5c0.1,0,0.1-0.1,0.1-0.2c0,0,0.1-0.1,0.2-0.1c0.1-0.1,0.1-0.2,0.3-0.2c0,0,0.1-0.1,0.1-0.2
			c0,0,0.1-0.1,0.2-0.1c0,0,0.1-0.1,0.1-0.1c0.1,0,0.2,0,0.2-0.1c0-0.1,0.1-0.1,0.2-0.2c0.1,0,0.1-0.1,0.2-0.1c0.1,0,0.1,0,0.2-0.1
			c0.1,0,0.2-0.1,0.3-0.2c0.1-0.1,0.2,0,0.3-0.1c0.1,0,0.1-0.2,0.3-0.1c0.1,0,0.2-0.1,0.3-0.1c0.1-0.2,0.2-0.1,0.4-0.2
			c0.1,0,0.1,0,0.2,0c0,0,0.1,0,0.1,0c0.1,0,0.1-0.1,0.2-0.1c0.1,0,0.1,0,0.3,0c-0.2-0.1-0.3-0.2-0.5-0.4c-0.1-0.1-0.2-0.2-0.3-0.3
			c-0.1-0.1-0.2-0.2-0.3-0.3c-0.1-0.1-0.2-0.1-0.2-0.3c-0.2,0-0.2-0.2-0.2-0.3c-0.1-0.1-0.1-0.2-0.2-0.4c0,0-0.1-0.1-0.1-0.1
			c0-0.1,0-0.1,0-0.2c-0.1-0.1,0-0.1,0-0.2c0,0,0-0.1,0-0.1c-0.2-0.1-0.1-0.4-0.1-0.5c0-0.2-0.1-0.3-0.1-0.5c0-0.3,0.1-0.5,0.1-0.8
			c0,0,0-0.1,0.1-0.1c0.1,0,0.1-0.1,0.1-0.2c0-0.1,0.1-0.3,0.1-0.4c0-0.1,0.1-0.2,0.1-0.3c0.1-0.1,0-0.2,0.2-0.3
			c0-0.1,0-0.2,0.2-0.3c0,0,0,0,0-0.1c0-0.2,0.3-0.3,0.3-0.5c0.2,0,0.1-0.2,0.3-0.2c0.1-0.2,0.3-0.2,0.4-0.4c0.1-0.1,0.2,0,0.2-0.2
			c0-0.1,0.2,0,0.3-0.1c0,0,0.1,0,0.2-0.1c0,0,0.1-0.1,0.1-0.1c0.5-0.1,1-0.1,1.5-0.1c0.1,0.1,0.3,0,0.4,0.1c0.1,0,0.2,0.1,0.3,0.1
			c0,0,0,0,0,0c0.2,0,0.3,0.1,0.4,0.2c0.1,0.1,0.3,0.1,0.4,0.2c0.1,0.1,0.2,0.2,0.2,0.3c0,0.1,0.2,0.1,0.2,0.2
			c0.1,0.1,0.3,0.2,0.2,0.4c0,0,0,0,0,0c0,0,0.1,0.1,0.1,0.1c-0.1,0.2,0.1,0.2,0.2,0.3c0,0.1,0,0.3,0.2,0.4c0,0,0,0.1,0,0.1
			c0,0.1,0.1,0.2,0.1,0.4c0,0.1,0.2,0.2,0.1,0.3c0,0.1,0,0.3,0,0.4c0.1,0.1,0.1,0.3,0.1,0.4c0,0.2-0.1,0.5-0.1,0.7
			c0,0,0,0.1-0.1,0.1c0,0-0.1,0.1-0.1,0.1c0,0.1,0,0.3-0.1,0.4c0,0.1-0.2,0.1-0.1,0.3c0,0.1-0.1,0.2-0.2,0.3
			c-0.1,0.1-0.1,0.2-0.2,0.3C47,43.9,47,44,47,44.1c-0.1,0.1-0.2,0.1-0.2,0.2c0,0.1-0.2,0.1-0.2,0.2c0,0.1-0.1,0.1-0.2,0.2
			c-0.1,0.1-0.1,0.1-0.2,0.2c-0.1,0.1-0.2,0.2-0.3,0.2c0.1,0,0.1,0,0.2,0c0.1,0,0.1,0,0.2,0.1c0,0,0.1,0,0.2,0.1
			c0.2,0.1,0.4,0,0.5,0.2c0.1,0,0.2,0,0.2,0.1c0.1,0,0.2,0,0.2,0.1c0.1,0.1,0.1,0.1,0.2,0.1c0.2,0,0.3,0.1,0.5,0.2
			c0.2,0.1,0.3,0.2,0.5,0.3c0.1,0.2,0.4,0.1,0.5,0.3c0.1,0,0.1,0.2,0.2,0.2c0.2,0,0.3,0.2,0.4,0.3c0.1,0,0.1,0.1,0.2,0.2
			c0,0.1,0.2,0,0.2,0.2c0.1,0.1,0.3,0.2,0.3,0.4c0,0,0,0,0,0c0.2,0,0.1,0.2,0.2,0.3c0.1,0,0,0.1,0,0.1c0,0-0.1,0-0.1,0
			c-0.2,0.2-0.4,0.1-0.6,0.3c-0.2,0-0.3,0.2-0.5,0.3c-0.1,0-0.1,0.2-0.3,0.2c0,0.1-0.1,0.2-0.2,0.2c0,0.1-0.1,0.2-0.2,0.3
			c-0.1,0.1,0,0.3-0.2,0.3c0,0.1-0.1,0.2-0.2,0.3c0,0.1-0.1,0.2-0.2,0.3c0,0,0,0.2-0.1,0.2c0,0.2-0.2,0.3-0.2,0.5
			C47.8,51.1,47.8,51.2,47.8,51.3z"/>
		<path class="st2" d="M30.7,45.1c0.3-0.1,0.5,0.1,0.7,0.1c0.1,0,0.1,0,0.2,0c0.1,0,0.1,0,0.2,0.1c0,0,0.3,0.1,0.4,0.1
			c0.1,0,0.2,0,0.2,0.1c0.1,0,0.2,0.1,0.3,0.1c0.1,0,0.1,0.2,0.3,0.1c0,0.1,0.3,0,0.3,0.2c0,0,0.1,0,0.2,0c0.1,0.1,0.3,0.2,0.4,0.2
			c0.1,0.1,0.3,0.1,0.3,0.2c0.1,0.1,0.3,0.1,0.3,0.3c0.1,0,0.2,0.2,0.3,0.2c0.1,0.1,0.1,0.2,0.3,0.2c0.1,0.1,0.2,0.2,0.2,0.3
			c0,0.1,0.2,0.1,0.2,0.2c0,0.1,0,0.2,0.1,0.3c-0.1,0-0.2,0.1-0.3,0.1c-0.1,0-0.2,0.1-0.3,0.2c-0.1,0.1-0.2,0.1-0.3,0.2
			c-0.1,0.1-0.2,0.1-0.3,0.2c-0.2,0-0.2,0.2-0.3,0.2c-0.1,0-0.1,0.2-0.3,0.2c-0.1,0,0,0.2-0.2,0.3c-0.1,0-0.1,0.2-0.2,0.3
			c-0.1,0.1-0.1,0.2-0.2,0.3C33,50.1,33,50.3,33,50.4c0,0.1-0.2,0.2-0.2,0.3c0,0.1-0.1,0.2-0.1,0.3c0,0.1-0.1,0.2-0.1,0.4
			c-2.2,0-4.5,0-6.7,0c-0.1-0.1-0.2-0.2-0.2-0.4c0,0,0-0.1,0-0.1c-0.1-0.1-0.1-0.2-0.2-0.4c0-0.1-0.1-0.2-0.2-0.4
			c0-0.1-0.1-0.2-0.1-0.2c-0.2,0-0.1-0.1-0.1-0.2c-0.1-0.1-0.2-0.3-0.3-0.4c-0.1-0.1-0.1-0.2-0.2-0.2c0.1-0.1,0-0.2-0.1-0.2
			c-0.1-0.1-0.2-0.1-0.2-0.1c-0.1-0.1-0.2-0.2-0.3-0.3c-0.1-0.1-0.3-0.1-0.4-0.3c-0.1-0.1-0.3-0.1-0.4-0.2c0,0-0.1,0-0.1-0.1
			c0,0,0-0.1,0-0.1c0.2,0,0.1-0.4,0.3-0.4c0-0.1,0-0.2,0.2-0.2c0.1,0,0.1-0.2,0.2-0.2c0,0,0.1-0.1,0.1-0.1c0,0,0.1-0.1,0.1-0.1
			c0,0,0.1-0.1,0.1-0.1c0.1,0,0.2,0,0.2-0.1c0,0,0.1,0,0.1-0.1c0.1,0,0.2-0.1,0.2-0.1c0-0.1,0.2-0.1,0.2-0.1
			c0.1-0.1,0.3-0.1,0.4-0.2c0.1-0.1,0.2-0.2,0.4-0.2c0.1-0.2,0.4-0.1,0.6-0.3c0.1,0,0.2,0,0.3-0.1c0.1,0,0.1,0,0.2-0.1
			c0-0.1,0.1-0.1,0.2-0.1c0.1,0,0.3,0,0.4-0.1c0.2-0.1,0.3-0.1,0.5-0.1c-0.2,0-0.2-0.3-0.4-0.3c0-0.2-0.3-0.2-0.3-0.4
			c-0.2,0-0.2-0.2-0.3-0.3c-0.1-0.1-0.3-0.2-0.3-0.4c-0.2-0.1-0.2-0.4-0.3-0.5c-0.1-0.1-0.1-0.4-0.2-0.5c-0.1-0.2-0.1-0.4-0.1-0.5
			c0-0.4,0-0.8,0-1.2c0-0.2,0-0.4,0.1-0.6c0-0.1,0.1-0.1,0.1-0.2c0-0.1,0.1-0.2,0.1-0.3c0-0.1,0.1-0.2,0.1-0.3
			c0.2-0.1,0.2-0.4,0.4-0.4c0-0.2,0.1-0.2,0.2-0.3c0-0.2,0.2-0.2,0.2-0.3c0-0.1,0.2-0.2,0.3-0.2c0.1-0.1,0.2-0.3,0.4-0.2
			c0.1-0.2,0.4-0.1,0.5-0.3c0.2,0,0.3-0.1,0.5-0.1c0.3,0,0.7,0,1,0c0.2,0,0.4,0,0.6,0.2c0,0,0.1,0,0.1,0c0.1,0.1,0.3,0,0.3,0.2
			c0.1,0,0.2,0.1,0.4,0.1c0,0.1,0.1,0.1,0.2,0.2c0.2,0.3,0.5,0.4,0.7,0.7c0,0.1,0.2,0.1,0.2,0.2c0,0.1,0.1,0.1,0.1,0.2
			c0,0.1,0,0.2,0.1,0.3c0,0,0.1,0.1,0.1,0.1c0,0,0,0.1,0,0.2c0,0.2,0.2,0.4,0.2,0.6c0,0.1,0,0.1,0,0.2c0,0.1,0,0.2,0,0.3
			c0,0.1,0.1,0.2,0.1,0.3c0,0.2,0.1,0.5,0,0.7c0,0.1-0.1,0.1-0.1,0.2c0,0.2,0,0.4-0.1,0.5c-0.1,0.2-0.1,0.3-0.2,0.5
			c-0.1,0.2-0.2,0.3-0.3,0.5C32,43.8,32,43.9,31.9,44c-0.1,0.1-0.1,0.3-0.3,0.3c-0.1,0.1-0.2,0.3-0.3,0.3
			C31.2,44.8,30.9,44.9,30.7,45.1z"/>
		<path class="st2" d="M60.9,45.1c0.2,0,0.4,0,0.5,0.1c0.2,0,0.3,0.1,0.4,0.1c0,0,0,0,0.1,0c0.1,0,0.2,0.2,0.3,0.1
			c0.1,0.1,0.2,0,0.3,0.1c0,0.1,0.1,0.1,0.2,0.1c0.1,0.1,0.3,0,0.4,0.2c0.1,0,0.3,0.1,0.4,0.2c0,0,0.1,0,0.1,0.1
			c0.1,0.1,0.2,0,0.3,0.2c0.1,0,0.2,0,0.3,0.2c0,0,0.1,0,0.1,0c0.1,0,0.2,0.1,0.3,0.2c0,0,0.1,0.1,0.1,0.1c0.1,0,0.3,0.2,0.3,0.3
			c0.1,0.1,0.2,0.2,0.3,0.2c0.1,0.1,0.1,0.1,0.1,0.2c0,0.1,0.1,0.1,0.2,0.2c0,0.1-0.1,0.2,0.1,0.2c0.1,0,0,0.2,0,0.2
			c-0.1,0.1-0.2,0.1-0.3,0.1c-0.4,0.2-0.6,0.3-0.9,0.6c-0.1,0.1-0.2,0.1-0.2,0.2c-0.2,0.2-0.4,0.5-0.6,0.7c0,0,0,0.1-0.1,0.1
			c0,0.1-0.1,0.2-0.1,0.2c-0.2,0,0,0.1-0.1,0.2c-0.1,0.1-0.1,0.1-0.2,0.2c0,0.1-0.1,0.2-0.1,0.3c0,0.1,0,0.2-0.1,0.2
			c0,0,0,0.1,0,0.1c0,0.1-0.1,0.3-0.1,0.4c-2.2,0-4.5,0-6.7,0c0-0.1-0.1-0.3-0.1-0.4c-0.1-0.1,0-0.2,0-0.2c-0.2-0.3-0.3-0.7-0.5-1
			c-0.1-0.1-0.1-0.3-0.3-0.4c0-0.2-0.2-0.2-0.2-0.3c0-0.1-0.2-0.1-0.2-0.3c-0.1,0-0.2-0.1-0.3-0.1c-0.1-0.1-0.1-0.2-0.3-0.2
			c-0.2-0.2-0.5-0.2-0.7-0.4c0,0-0.1,0-0.2,0c0-0.2,0.1-0.3,0.2-0.4c0.1-0.1,0.1-0.2,0.2-0.3c0-0.2,0.2-0.2,0.3-0.3
			c0.1,0,0.1-0.2,0.3-0.3c0.1,0,0.1-0.2,0.3-0.2c0.1-0.1,0.2-0.2,0.3-0.2c0.2-0.1,0.4-0.3,0.6-0.3c0.1-0.2,0.3-0.1,0.4-0.2
			c0.1,0,0.1-0.1,0.2-0.1c0.1,0,0.2,0,0.2-0.1c0.1,0,0.1-0.2,0.2-0.1c0.1,0,0.2,0,0.3-0.1c0.2-0.1,0.4-0.1,0.6-0.2c0,0,0.1,0,0.1,0
			c0.1-0.2,0.3-0.1,0.4-0.1c0-0.2-0.2-0.1-0.3-0.2c0-0.1-0.2-0.1-0.2-0.2c0,0-0.1,0-0.1,0c0,0-0.1,0-0.1,0c0-0.2-0.2-0.2-0.2-0.3
			c-0.1-0.1-0.1-0.2-0.3-0.3c-0.1-0.1-0.1-0.2-0.2-0.3c-0.1-0.2-0.3-0.4-0.3-0.7c0,0,0-0.1,0-0.1c-0.1-0.1-0.1-0.3,0-0.4
			c0,0,0,0,0-0.1c0,0-0.1,0-0.1,0.1c0-0.1,0-0.2,0-0.3c0,0,0.1,0.1,0.1,0.1c0,0,0-0.1,0-0.1c0,0,0-0.1-0.1-0.1
			c-0.2-0.1-0.2-0.3-0.2-0.6c0.1,0,0.2-0.1,0.3-0.1c-0.1,0-0.1,0-0.2,0c-0.1,0-0.2-0.1-0.1-0.2c0.1-0.1,0.1-0.2,0.1-0.3
			c0-0.3,0-0.3,0.2-0.7c0-0.1,0-0.2,0-0.2c0.1-0.1,0-0.2,0.2-0.3c0-0.1,0-0.2,0.1-0.3c0.2,0,0.1-0.2,0.2-0.2
			c0.1-0.1,0.1-0.1,0.2-0.2c0.1-0.1,0.2-0.2,0.3-0.3c0.1-0.1,0.2-0.1,0.3-0.2c0-0.1,0.2-0.1,0.2-0.2c0,0,0,0,0,0
			c0.1,0,0.2,0,0.3-0.1c0.1,0,0.1-0.2,0.2-0.1c0.1-0.1,0.2,0,0.3-0.2c0,0,0,0,0.1,0c0.2,0,0.4-0.1,0.5-0.1c0.3,0,0.5,0,0.8,0
			c0.2,0,0.4,0,0.6,0.1c0.1,0,0.2,0.1,0.3,0.2c0.1,0,0.2-0.1,0.2,0.1c0.1,0,0.2,0,0.3,0.1c0.1,0.1,0.2,0.2,0.3,0.2
			c0,0.1,0.2,0.1,0.2,0.3c0.2,0,0.2,0.2,0.3,0.3c0,0,0.1,0,0.1,0.1c0,0.2,0.2,0.2,0.2,0.4c0.2,0.2,0.3,0.4,0.3,0.7
			c0,0.1,0,0.2,0.1,0.2c0.2,0,0.1,0.2,0.1,0.3c0.1,0.2,0.1,0.4,0.1,0.7c0,0.3,0,0.6,0,0.9c0,0.3-0.1,0.5-0.2,0.8
			c-0.1,0.2-0.2,0.4-0.2,0.6c-0.1,0.3-0.3,0.6-0.5,0.8c-0.1,0.1-0.1,0.2-0.2,0.2c-0.1,0-0.1,0.2-0.1,0.2c-0.1,0-0.2,0-0.2,0.2
			C61.2,44.8,61.1,45,60.9,45.1z"/>
	</g>
</g>
</svg>
