<?xml version="1.0" encoding="utf-8"?>
<!-- Generator: Adobe Illustrator 22.0.1, SVG Export Plug-In . SVG Version: 6.00 Build 0)  -->
<svg version="1.1" id="Layer_1" xmlns="http://www.w3.org/2000/svg" xmlns:xlink="http://www.w3.org/1999/xlink" x="0px" y="0px"
	 viewBox="0 0 112 115.5" style="enable-background:new 0 0 112 115.5;" xml:space="preserve">
<style type="text/css">
	.st0{fill:#FAEE37;}
	.st1{fill-rule:evenodd;clip-rule:evenodd;fill:#004280;}
	.st2{fill:#004280;}
	.st3{fill:url(#SVGID_1_);}
	.st4{fill:url(#SVGID_2_);}
	.st5{fill:url(#SVGID_3_);}
	.st6{fill:url(#SVGID_4_);}
	.st7{fill:url(#SVGID_5_);}
	.st8{fill:url(#SVGID_6_);}
	.st9{fill:url(#SVGID_7_);}
	.st10{fill:url(#SVGID_8_);}
	.st11{fill:url(#SVGID_9_);}
	.st12{fill:url(#SVGID_10_);}
	.st13{fill:url(#SVGID_11_);}
	.st14{fill:url(#SVGID_12_);}
	.st15{fill:url(#SVGID_13_);}
	.st16{fill:url(#SVGID_14_);}
	.st17{fill:url(#SVGID_15_);}
	.st18{fill:#F38020;}
	.st19{fill:url(#SVGID_28_);}
	.st20{fill:url(#SVGID_29_);}
	.st21{fill:url(#SVGID_30_);}
	.st22{opacity:0.77;}
	.st23{clip-path:url(#SVGID_32_);}
	.st24{clip-path:url(#SVGID_34_);fill:url(#SVGID_35_);}
	.st25{clip-path:url(#SVGID_37_);}
	.st26{fill:url(#SVGID_38_);}
	.st27{opacity:0.8;fill:url(#SVGID_39_);}
	.st28{fill:url(#SVGID_40_);}
	.st29{opacity:0.8;fill:url(#SVGID_41_);}
	.st30{opacity:0.8;fill:url(#SVGID_42_);}
	.st31{fill:url(#SVGID_43_);}
	.st32{opacity:0.8;fill:url(#SVGID_44_);}
	.st33{fill:url(#SVGID_45_);}
	.st34{fill:url(#SVGID_46_);}
	.st35{fill:url(#SVGID_47_);}
	.st36{fill:url(#SVGID_48_);}
	.st37{fill:url(#SVGID_49_);}
	.st38{fill:none;stroke:#FFFFFF;stroke-miterlimit:10;}
	.st39{clip-path:url(#SVGID_37_);fill:url(#SVGID_50_);}
	.st40{clip-path:url(#SVGID_37_);fill:url(#SVGID_51_);}
	.st41{opacity:0.8;fill:url(#SVGID_52_);}
	.st42{fill:url(#SVGID_53_);}
	.st43{fill:url(#SVGID_54_);}
	.st44{clip-path:url(#SVGID_37_);fill:url(#SVGID_55_);}
	.st45{clip-path:url(#SVGID_37_);fill:url(#SVGID_56_);}
	.st46{opacity:0.5;}
	.st47{fill:#9FCFFF;}
	.st48{clip-path:url(#SVGID_37_);fill:url(#SVGID_57_);}
	.st49{clip-path:url(#SVGID_37_);fill:url(#SVGID_58_);}
	.st50{clip-path:url(#SVGID_37_);fill:url(#SVGID_59_);}
	.st51{fill:url(#SVGID_60_);}
	.st52{fill:url(#SVGID_61_);}
	.st53{fill:url(#SVGID_62_);}
	.st54{fill:url(#SVGID_63_);}
	.st55{fill:url(#SVGID_64_);}
	.st56{fill:url(#SVGID_65_);}
	.st57{fill:url(#SVGID_66_);}
	.st58{fill:#CBCBCD;}
	.st59{fill:url(#SVGID_69_);}
	.st60{fill:#282828;}
	.st61{opacity:0.8;fill:#5C5C5C;}
	.st62{fill:url(#SVGID_70_);}
	.st63{fill:url(#SVGID_73_);}
	.st64{fill:url(#SVGID_74_);}
	.st65{fill:url(#SVGID_77_);}
	.st66{fill:url(#SVGID_78_);}
	.st67{fill:url(#SVGID_81_);}
	.st68{fill:url(#SVGID_82_);}
	.st69{fill:url(#SVGID_83_);}
	.st70{fill:url(#SVGID_84_);}
	.st71{fill:url(#SVGID_85_);}
	.st72{fill:url(#SVGID_86_);}
	.st73{fill:url(#SVGID_87_);}
	.st74{fill:url(#SVGID_88_);}
	.st75{fill:url(#SVGID_89_);}
	.st76{fill:url(#SVGID_90_);}
	.st77{fill:url(#SVGID_91_);}
	.st78{fill:url(#SVGID_92_);}
	.st79{fill:url(#SVGID_93_);}
	.st80{fill:none;stroke:url(#SVGID_94_);stroke-miterlimit:10;}
	.st81{fill:none;stroke:url(#SVGID_95_);stroke-miterlimit:10;}
	.st82{fill:url(#SVGID_96_);}
	.st83{fill:url(#SVGID_97_);}
	.st84{fill:url(#SVGID_98_);}
	.st85{fill:url(#SVGID_99_);}
	.st86{fill:url(#SVGID_100_);}
	.st87{fill:url(#SVGID_101_);}
	.st88{fill:url(#SVGID_102_);}
	.st89{fill:url(#SVGID_103_);}
	.st90{fill:none;stroke:url(#SVGID_104_);stroke-miterlimit:10;}
	.st91{fill:url(#SVGID_105_);}
	.st92{fill:url(#SVGID_106_);}
	.st93{fill:url(#SVGID_107_);}
	.st94{fill:url(#SVGID_108_);}
	.st95{fill:url(#SVGID_109_);}
	.st96{fill:url(#SVGID_110_);}
	.st97{fill:url(#SVGID_111_);}
	.st98{fill:url(#SVGID_112_);}
	.st99{fill:url(#SVGID_113_);}
	.st100{fill:url(#SVGID_114_);}
	.st101{fill:url(#SVGID_115_);}
	.st102{fill:url(#SVGID_116_);}
	.st103{fill:url(#SVGID_117_);}
	.st104{fill:url(#SVGID_118_);}
	.st105{fill:url(#SVGID_119_);}
	.st106{fill:url(#SVGID_120_);}
	.st107{fill:url(#SVGID_121_);}
	.st108{fill:url(#SVGID_122_);}
	.st109{fill:url(#SVGID_123_);}
	.st110{fill:url(#SVGID_124_);}
	.st111{fill:url(#SVGID_125_);}
	.st112{fill:url(#SVGID_126_);}
	.st113{fill:url(#SVGID_127_);}
	.st114{fill:url(#SVGID_128_);}
	.st115{fill:url(#SVGID_129_);}
	.st116{fill:url(#SVGID_130_);}
	.st117{fill:url(#SVGID_131_);}
	.st118{fill:none;stroke:#000000;stroke-width:1.633;stroke-miterlimit:10;}
	.st119{fill:url(#SVGID_132_);}
	.st120{fill:url(#SVGID_133_);}
	.st121{fill:url(#SVGID_134_);}
	.st122{fill:url(#SVGID_135_);}
	.st123{fill:url(#SVGID_136_);}
	.st124{fill:url(#SVGID_137_);}
	.st125{fill:url(#SVGID_138_);}
	.st126{fill:url(#SVGID_139_);}
	.st127{fill:url(#SVGID_140_);}
	.st128{fill:url(#SVGID_141_);}
	.st129{fill:url(#SVGID_142_);}
	.st130{fill:url(#SVGID_143_);}
	.st131{fill:#FFFFFF;}
	.st132{fill:url(#SVGID_144_);}
	.st133{fill:url(#SVGID_145_);}
	.st134{fill:url(#SVGID_146_);}
	.st135{fill:url(#SVGID_147_);}
	.st136{fill:url(#SVGID_148_);}
	.st137{fill:url(#SVGID_149_);}
	.st138{fill:url(#SVGID_150_);}
	.st139{stroke:#000000;stroke-width:2;stroke-miterlimit:10;}
	.st140{fill:#434343;}
</style>
<g>
	<circle cx="56" cy="57.8" r="50.2"/>
	<g>
		<path class="st131" d="M32.7,50.1c0,0-1,0.8-3.8,1.3c-1.9,0.3-3.3,0.5-4.6,0.7l2.4-14c0.2-1.3,0.2-2-0.2-2.4
			c-0.3-0.3-0.9-0.4-1.8-0.3l-1.8,0.3c-4,0.7-6.6,3-6.6,5.7c0,0.8,0.3,1.4,0.7,1.8c0.5,0.4,1.3,0.6,2.1,0.4c1.4-0.3,2.1-1.3,2.1-1.9
			c0-0.2,0-0.3,0-0.3c0,0,0-0.1-0.1-0.1c0,0-0.1,0-0.1,0c0,0-0.1,0.1-0.4,0.1c-0.3,0-0.5,0-0.6-0.1c-0.2-0.2-0.3-0.4-0.3-0.8
			c0-1.3,1.1-2.9,3.4-3.3l0.1,0c0,0.4,0,0.7-0.1,1.1l-2.4,14l-0.1,0c-1.4,0.2-2,1.2-2,2c0,0.4,0.2,0.8,0.4,1
			c0.2,0.2,0.6,0.4,1.1,0.4c0.2,0,0.4,0,0.6-0.1c1.7-0.3,2.8-1.6,3-2c0.5,0.1,3.5,0.8,6.4,0.3c1.9-0.3,3-1.4,3-2.9
			c0-0.8-0.3-1.1-0.3-1.2C32.9,50.1,32.8,50.1,32.7,50.1z"/>
		<path class="st131" d="M37.1,37.6c0.1,0,0.2,0,0.3,0c1.2-0.2,2-1.3,2-2.2c0-0.5-0.2-0.9-0.5-1.2c-0.3-0.3-0.8-0.4-1.3-0.3
			c-1.1,0.2-1.9,1.2-1.9,2.3c0,0.5,0.2,0.9,0.5,1.1C36.4,37.5,36.7,37.6,37.1,37.6z"/>
		<path class="st131" d="M44.4,51.7c1.9-0.3,3.5-1.9,4.3-3.2c0.4,1.4,1.7,2.1,3.4,1.8c1.8-0.3,3.3-1.7,4.2-3c0.4,1.4,1.5,2,3,1.7
			c1.9-0.3,3.5-2,4.4-3.5c1,1.6,2.9,2.2,5.3,1.8c4.1-0.7,6.6-4,6.8-5.1c0.1-0.3,0-0.5-0.1-0.6c-0.1-0.1-0.2-0.2-0.5-0.1
			c0,0-0.1,0-0.1,0.1c-0.5,0.8-1.9,2.8-5,3.3c-1,0.2-1.9,0-2.5-0.5c-0.6-0.5-1-1.2-1.1-2.1c4.8-1.8,7.3-3.8,7.3-6.1
			c0-0.7-0.3-1.3-0.7-1.7c-0.5-0.4-1.4-0.8-3.1-0.5c-3.5,0.6-7.1,4-7.1,8.7c0,0.6,0.1,1.1,0.2,1.6c-0.7,1.1-1.6,1.9-2.5,2
			c-0.3,0.1-0.6,0-0.8-0.2c-0.3-0.3-0.4-0.9-0.2-1.8l2.5-14.9c0.2-1,0.2-1.7-0.2-2.1c-0.3-0.3-0.9-0.4-1.9-0.2
			c-1,0.2-1.4,0.5-1.4,0.5c0,0-0.1,0.1,0,0.1c0,0,0.2,0.6,0,2.2l-2.4,13.8c-0.1,0.5-0.2,1.1-0.2,1.6c-0.4,0.7-1.4,2-2.8,2.2
			c-0.5,0.1-0.8,0-1.1-0.2C52,47,52,46.5,52.1,45.7l1.2-7.3l2-0.4c0.6-0.1,1-0.5,1-1c0-0.4-0.2-0.6-0.2-0.6c0,0-0.1,0-0.1,0
			l-2.4,0.4l0.2-1.2c0.2-1,0.2-1.7-0.2-2.1c-0.3-0.3-0.9-0.4-1.9-0.2c-1,0.2-1.4,0.5-1.4,0.5c0,0-0.1,0.1,0,0.2c0,0,0.3,0.6,0,2.2
			L50,37.5l-1.1,0.2c-0.2,0-0.3,0.1-0.5,0.2c0,0,0,0,0,0c0,0-0.1,0-0.1,0l-2.4,0.4l0.2-1.2c0.2-1,0.2-1.7-0.2-2.1
			c-0.3-0.3-0.9-0.4-1.9-0.2c-1,0.2-1.4,0.5-1.4,0.5c0,0-0.1,0.1,0,0.2c0,0,0.3,0.6,0,2.2l-0.2,1.4L41.2,39c-0.6,0.1-1,0.5-1,1
			c0,0.4,0.2,0.6,0.2,0.6c0,0,0.1,0,0.1,0l1.5-0.3l-0.9,5.5c-0.1,0.7-0.2,1.4-0.3,2c-0.6,1.3-1.7,2.2-2.5,2.4
			c-0.3,0.1-0.6,0-0.8-0.2c-0.3-0.3-0.4-0.9-0.2-1.8l1-6c0.2-1,0.2-1.7-0.2-2.1c-0.3-0.3-0.9-0.4-1.9-0.2c-1,0.2-1.4,0.5-1.4,0.5
			c0,0-0.1,0.1,0,0.1c0,0,0.2,0.5,0,2.2L34,47.6c-0.2,1.3-0.2,2.3-0.2,2.5c0,1,0.3,1.9,0.9,2.4c0.4,0.4,1,0.5,1.6,0.5
			c0.2,0,0.4,0,0.7-0.1c1.8-0.3,3.2-1.8,4-3.1C41.4,51.3,42.7,52,44.4,51.7z M48.1,39.2C48.1,39.3,48.1,39.3,48.1,39.2
			c0.1,0.1,0.1,0.1,0.1,0.1l1.5-0.3l-0.9,5.5c-0.1,0.8-0.2,1.4-0.3,2c-0.4,0.7-1.3,2.2-2.9,2.4c-0.5,0.1-0.9,0-1.1-0.2
			c-0.3-0.3-0.4-0.9-0.3-1.7l1.2-7.3l2-0.4C47.8,39.4,48,39.3,48.1,39.2z M70.1,35.5c0.1,0,0.1,0,0.2,0c0.2,0,0.3,0,0.4,0.1
			c0.1,0.1,0.2,0.3,0.2,0.5c0,1.8-1.5,3.5-4.2,4.6C67,37.7,68.6,35.7,70.1,35.5z"/>
		<path class="st131" d="M59.1,54.9c0-0.4-0.2-0.7-0.3-0.8c0,0-0.1,0-0.1,0c0,0-0.9,0.5-2.2,0.8c-2.7,0.5-4.4,0.6-6,0.7
			c-1.2,0.1-2.2,0.2-3.4,0.4c-4,0.7-6.4,2.7-6.4,5.3c0,0.7,0.2,1.3,0.7,1.7c0.5,0.4,1.2,0.5,2,0.4c1.3-0.2,1.9-1.2,1.9-1.8
			c0-0.2,0-0.2,0-0.3c0,0,0-0.1-0.1-0.1c0,0-0.1,0-0.1,0c0,0-0.1,0.1-0.4,0.1c-0.2,0-0.4,0-0.6-0.1c-0.2-0.1-0.2-0.4-0.2-0.7
			c0-1.2,1-2.7,3.2-3c0.8-0.1,1.1-0.1,1.7-0.1l0.2,0c0,0.2,0,0.4-0.1,0.8l-2.2,13.2c-0.2,1.2-0.1,1.8,0.2,2.2c0.2,0.2,0.5,0.3,1,0.3
			c0.2,0,0.5,0,0.7-0.1c1-0.2,1.4-0.5,1.4-0.5c0,0,0.1-0.1,0-0.1c0,0-0.2-0.6,0-2.2l2.2-13.3c0.2,0,0.3,0,0.5,0.1
			c1.1,0.2,1.9,0.3,3.4,0C58,57.4,59.1,56.4,59.1,54.9z"/>
		<path class="st131" d="M65.7,66c0.8-0.3,1.7-0.8,2.4-1.4c-0.2,1-0.2,1.8-0.2,2.5c0,0.9,0.3,1.7,0.9,2.2c0.6,0.5,1.4,0.7,2.4,0.5
			c1.2-0.2,2.5-1,3.5-2.2c0.7,0.9,2.2,1.2,4,0.9c3.8-0.7,5.2-2.8,5.2-4.5c0-1.4-0.8-2.3-2.4-2.8l-2.1-0.7c-0.8-0.3-1.1-0.6-1.1-1.2
			c0-0.9,0.7-1.5,1.9-1.7c0.6-0.1,1.1,0,1.4,0.3c0.3,0.3,0.5,0.7,0.5,1.3c0,0.4-0.1,0.7-0.1,0.7c0,0.1,0,0.1,0,0.1
			c0,0,0.4,0.3,1.2,0.2c0.8-0.1,1.7-0.8,1.7-1.8c0-0.6-0.3-1.1-0.8-1.5c-0.8-0.7-2.1-0.9-3.7-0.6c-3.1,0.6-5.2,2.3-5.2,4.5
			c0,1.7,1,2.3,2.2,2.7l2.3,0.8c0.8,0.3,1.1,0.6,1.1,1.2c0,0.6-0.5,1.5-1.9,1.7c-0.6,0.1-1.1,0-1.4-0.3c-0.3-0.3-0.5-0.7-0.5-1.3
			c0-0.4,0.1-0.7,0.1-0.7c0,0,0-0.1,0-0.1c0,0-0.4-0.3-1.2-0.2c-0.2,0-0.4,0.1-0.6,0.2c-0.6,0.3-1,0.9-1,1.5
			c-0.5,0.6-1.2,0.9-1.8,1.1c-0.4,0.1-0.8,0-1-0.2c-0.3-0.3-0.4-0.8-0.2-1.5l1.1-6.7l1.8-0.3c0.6-0.1,0.9-0.5,0.9-1
			c0-0.4-0.2-0.6-0.2-0.6c0,0-0.1,0-0.1,0l-2.2,0.4l0.2-1.1c0.2-0.9,0.2-1.6-0.2-2c-0.3-0.3-0.8-0.4-1.7-0.2
			c-0.9,0.2-1.3,0.4-1.3,0.5c0,0-0.1,0.1,0,0.2c0,0,0.2,0.5,0,2L69.2,58l-1,0.2c-0.6,0.1-0.9,0.5-0.9,1c0,0.4,0.2,0.6,0.2,0.6
			c0,0,0.1,0,0.1,0l1.4-0.2l-0.5,3.1c-0.3,0.5-1.2,1.5-2.4,2c0.1-0.5,0.1-0.9,0.1-1.3c0-1.4-0.4-2.6-1.3-3.2
			c-0.8-0.7-1.9-0.9-3.3-0.7c-4,0.7-6.7,4.2-6.7,8.7c0,1.4,0.4,2.5,1.2,3.2c0.6,0.5,1.4,0.8,2.3,0.8c0.3,0,0.6,0,1-0.1
			C62.4,71.4,64.8,69.2,65.7,66z M61.5,64.1c0,0.8,0.3,1.4,0.9,1.8c-0.6,2.7-1.6,4.3-2.9,4.6c-0.4,0.1-0.7,0-0.9-0.2
			c-0.4-0.3-0.5-0.9-0.5-1.8c0-0.6,0.1-1.8,0.2-2.5c0.8-4.2,2.2-5.1,3-5.2c0.1,0,0.2,0,0.3,0c0.2,0,0.4,0.1,0.6,0.2
			c0.3,0.2,0.5,0.6,0.5,1.2C62,62.5,61.5,63.2,61.5,64.1z"/>
		<path class="st131" d="M70.3,74.8c-1.4,0.2-2.1,1.2-2.4,3l-0.2,1.1l-0.5,0.1c-0.3,0-0.4,0.2-0.4,0.4c0,0.2,0.1,0.3,0.1,0.3
			c0,0,0,0,0,0l0.6-0.1l-0.2,1.3c-0.1,0.1-0.5,0.7-1.2,1c0-0.2,0-0.4,0-0.6c0-0.7-0.2-1.2-0.6-1.5c-0.4-0.3-0.9-0.4-1.5-0.3
			c-1.8,0.3-3.1,1.9-3.1,3.9c0,0.6,0.2,1.2,0.6,1.5c0.4,0.3,0.9,0.4,1.5,0.3c1.4-0.2,2.5-1.3,2.9-2.7c0.4-0.1,0.8-0.4,1.2-0.7
			l-0.8,4.6c-0.2,1-0.5,1.2-0.8,1.2c-0.2,0-0.3-0.1-0.3-0.1c0,0-0.1,0-0.1,0c0,0-0.1,0.1-0.1,0.4c0,0.2,0.1,0.3,0.2,0.4
			c0.1,0.1,0.3,0.2,0.5,0.2c0.1,0,0.2,0,0.3,0c1-0.2,1.6-0.9,1.8-2.3l1.2-7l0.9-0.2c0.3,0,0.4-0.2,0.4-0.4c0-0.2-0.1-0.3-0.1-0.3
			c0,0,0,0,0,0l-1,0.2l0.2-1.5c0.2-1.4,0.7-1.6,0.9-1.6c0.1,0,0.2,0,0.3,0c0.1,0.1,0.1,0.2,0.1,0.3c0,0.6-0.4,1.1-0.4,1.1
			c0,0,0,0,0,0.1c0,0,0.2,0.3,0.6,0.2c0.6-0.1,1-0.7,1-1.4c0-0.3-0.1-0.6-0.3-0.8C71.2,74.8,70.8,74.7,70.3,74.8z M64.1,81.6
			c0,0.4,0.1,0.6,0.4,0.8c-0.3,1.2-0.7,2-1.3,2.1c-0.2,0-0.3,0-0.4-0.1c-0.2-0.1-0.2-0.4-0.2-0.8c0-0.3,0-0.8,0.1-1.1
			c0.3-1.9,1-2.3,1.4-2.4c0,0,0.1,0,0.1,0c0.1,0,0.2,0,0.3,0.1c0.1,0.1,0.2,0.3,0.2,0.5C64.3,80.9,64.1,81.2,64.1,81.6z"/>
		<path class="st131" d="M76.7,74.5c-2,0.4-3,1.7-3,2.9c0,0.9,0.4,1.4,1.3,1.8l1.2,0.5c0.7,0.3,1,0.6,1,1.1c0,0.7-0.6,1.4-1.5,1.5
			c-0.4,0.1-0.8,0-1-0.2c-0.2-0.1-0.3-0.4-0.3-0.6c0-0.5,0.4-0.9,0.4-0.9c0,0,0,0,0-0.1c0,0-0.1-0.2-0.5-0.2c-0.1,0-0.1,0-0.2,0
			c-0.5,0.1-1,0.5-1,1.4c0,0.4,0.2,0.8,0.5,1c0.3,0.3,0.8,0.4,1.4,0.4c0.2,0,0.5,0,0.7-0.1c2.1-0.4,3.1-1.8,3.1-2.9
			c0-0.8-0.4-1.4-1.3-1.8l-1.4-0.6c-0.5-0.2-0.7-0.6-0.7-1c0-0.8,0.6-1.4,1.5-1.5c0.5-0.1,0.8,0,1,0.2c0.2,0.1,0.3,0.4,0.3,0.6
			c0,0.8-0.5,1.1-0.5,1.2c0,0,0,0,0,0s0,0,0,0c0,0,0.2,0.2,0.5,0.2c0.1,0,0.1,0,0.2,0c0.7-0.1,1.1-0.7,1.1-1.5
			c0-0.4-0.2-0.8-0.5-1.1C78.3,74.5,77.6,74.4,76.7,74.5z"/>
		<path class="st131" d="M87.8,72.7c-0.1-0.1-0.3-0.2-0.6-0.1c-0.3,0.1-0.5,0.2-0.5,0.2c0,0,0,0,0,0.1c0.1,0.4,0.2,0.9,0.2,1.5
			c0,1.5-0.5,3.6-1.2,4.8c-0.4,0.7-0.8,1.1-1.3,1.2c-0.3,0.1-0.5,0-0.7-0.1c-0.2-0.2-0.4-0.6-0.4-1.2c0-0.3,0-0.7,0.1-1.3l0.5-3.2
			c0.1-0.5,0.1-0.8-0.1-1c-0.1-0.1-0.4-0.2-0.8-0.1l-0.8,0.1c-1.7,0.3-2.8,1.2-2.8,2.4c0,0.3,0.1,0.6,0.3,0.8
			c0.2,0.2,0.5,0.2,0.9,0.2c0.6-0.1,0.9-0.5,0.9-0.8c0-0.1,0-0.1,0-0.1c0,0,0,0,0,0c0,0,0,0,0,0c0,0-0.1,0-0.2,0.1
			c-0.1,0-0.2,0-0.3-0.1c-0.1-0.1-0.1-0.2-0.1-0.3c0-0.6,0.4-1.2,1.4-1.4l0,0c0,0.1,0,0.3-0.1,0.5L82,78c-0.1,0.4-0.1,0.8-0.1,1.3
			c0,0.9,0.2,1.6,0.7,2c0.3,0.2,0.6,0.3,1,0.3c0.1,0,0.3,0,0.5,0c1.3-0.2,2.2-1.3,3-3.6c0.5-1.3,1-3.2,1-4.2
			C88,73.1,88,72.8,87.8,72.7z"/>
		<path class="st131" d="M94.1,75.6c1.2-0.5,1.7-1.5,1.7-2.3c0-0.5-0.2-0.9-0.5-1.2c-0.6-0.5-1.6-0.6-3-0.3L90.8,72
			c-1.7,0.3-2.8,1.2-2.8,2.4c0,0.3,0.1,0.6,0.3,0.8c0.2,0.2,0.5,0.2,0.9,0.2c0.6-0.1,0.9-0.5,0.9-0.8c0-0.1,0-0.1,0-0.1c0,0,0,0,0,0
			c0,0,0,0,0,0c0,0-0.1,0-0.2,0.1c-0.1,0-0.2,0-0.3-0.1c-0.1-0.1-0.1-0.2-0.1-0.3c0-0.6,0.4-1.2,1.4-1.4l0,0c0,0.1,0,0.3-0.1,0.5
			L90,78.7c0,0.2-0.1,0.4-0.1,0.6c0,0.2,0,0.4,0.2,0.6c0.2,0.2,0.5,0.3,1.1,0.3c0.3,0,0.6,0,1-0.1c2.4-0.4,3.3-1.8,3.3-3
			c0-0.4-0.1-0.8-0.4-1C94.8,75.8,94.5,75.7,94.1,75.6z M92,75.6l0.5-3.2l0.3,0c0.4-0.1,0.8,0,1,0.2c0.2,0.2,0.3,0.5,0.3,0.9
			c0,1.2-0.8,2-1.6,2.1L92,75.6z M93.5,76.4c0.2,0.2,0.3,0.5,0.3,0.9c0,1.1-0.8,1.9-1.9,2.1c-0.2,0-0.4,0.1-0.5,0.1
			c0-0.2,0-0.4,0.1-0.8l0.4-2.3l0.7-0.1C93,76.2,93.3,76.2,93.5,76.4z"/>
	</g>
</g>
</svg>
