<?xml version="1.0" encoding="utf-8"?>
<!-- Generator: Adobe Illustrator 22.0.1, SVG Export Plug-In . SVG Version: 6.00 Build 0)  -->
<svg version="1.1" id="Layer_1" xmlns="http://www.w3.org/2000/svg" xmlns:xlink="http://www.w3.org/1999/xlink" x="0px" y="0px"
	 viewBox="0 0 112 115.5" style="enable-background:new 0 0 112 115.5;" xml:space="preserve">
<style type="text/css">
	.st0{fill:#FAEE37;}
	.st1{fill-rule:evenodd;clip-rule:evenodd;fill:#004280;}
	.st2{fill:#004280;}
	.st3{fill:url(#SVGID_1_);}
	.st4{fill:url(#SVGID_2_);}
	.st5{fill:url(#SVGID_3_);}
	.st6{fill:url(#SVGID_4_);}
	.st7{fill:url(#SVGID_5_);}
	.st8{fill:url(#SVGID_6_);}
	.st9{fill:url(#SVGID_7_);}
	.st10{fill:url(#SVGID_8_);}
	.st11{fill:url(#SVGID_9_);}
	.st12{fill:url(#SVGID_10_);}
	.st13{fill:url(#SVGID_11_);}
	.st14{fill:url(#SVGID_12_);}
	.st15{fill:url(#SVGID_13_);}
	.st16{fill:url(#SVGID_14_);}
	.st17{fill:url(#SVGID_15_);}
	.st18{fill:#F38020;}
	.st19{fill:url(#SVGID_28_);}
	.st20{fill:url(#SVGID_29_);}
	.st21{fill:url(#SVGID_30_);}
	.st22{opacity:0.77;}
	.st23{clip-path:url(#SVGID_32_);}
	.st24{clip-path:url(#SVGID_34_);fill:url(#SVGID_35_);}
	.st25{clip-path:url(#SVGID_37_);}
	.st26{fill:url(#SVGID_38_);}
	.st27{opacity:0.8;fill:url(#SVGID_39_);}
	.st28{fill:url(#SVGID_40_);}
	.st29{opacity:0.8;fill:url(#SVGID_41_);}
	.st30{opacity:0.8;fill:url(#SVGID_42_);}
	.st31{fill:url(#SVGID_43_);}
	.st32{opacity:0.8;fill:url(#SVGID_44_);}
	.st33{fill:url(#SVGID_45_);}
	.st34{fill:url(#SVGID_46_);}
	.st35{fill:url(#SVGID_47_);}
	.st36{fill:url(#SVGID_48_);}
	.st37{fill:url(#SVGID_49_);}
	.st38{fill:none;stroke:#FFFFFF;stroke-miterlimit:10;}
	.st39{clip-path:url(#SVGID_37_);fill:url(#SVGID_50_);}
	.st40{clip-path:url(#SVGID_37_);fill:url(#SVGID_51_);}
	.st41{opacity:0.8;fill:url(#SVGID_52_);}
	.st42{fill:url(#SVGID_53_);}
	.st43{fill:url(#SVGID_54_);}
	.st44{clip-path:url(#SVGID_37_);fill:url(#SVGID_55_);}
	.st45{clip-path:url(#SVGID_37_);fill:url(#SVGID_56_);}
	.st46{opacity:0.5;}
	.st47{fill:#9FCFFF;}
	.st48{clip-path:url(#SVGID_37_);fill:url(#SVGID_57_);}
	.st49{clip-path:url(#SVGID_37_);fill:url(#SVGID_58_);}
	.st50{clip-path:url(#SVGID_37_);fill:url(#SVGID_59_);}
	.st51{fill:url(#SVGID_60_);}
	.st52{fill:url(#SVGID_61_);}
	.st53{fill:url(#SVGID_62_);}
	.st54{fill:url(#SVGID_63_);}
	.st55{fill:url(#SVGID_64_);}
	.st56{fill:url(#SVGID_65_);}
	.st57{fill:url(#SVGID_66_);}
	.st58{fill:#CBCBCD;}
	.st59{fill:url(#SVGID_69_);}
	.st60{fill:#282828;}
	.st61{opacity:0.8;fill:#5C5C5C;}
	.st62{fill:url(#SVGID_70_);}
	.st63{fill:url(#SVGID_73_);}
	.st64{fill:url(#SVGID_74_);}
	.st65{fill:url(#SVGID_77_);}
	.st66{fill:url(#SVGID_78_);}
	.st67{fill:url(#SVGID_81_);}
	.st68{fill:url(#SVGID_82_);}
	.st69{fill:url(#SVGID_83_);}
	.st70{fill:url(#SVGID_84_);}
	.st71{fill:url(#SVGID_85_);}
	.st72{fill:url(#SVGID_86_);}
	.st73{fill:url(#SVGID_87_);}
	.st74{fill:url(#SVGID_88_);}
	.st75{fill:url(#SVGID_89_);}
	.st76{fill:url(#SVGID_90_);}
	.st77{fill:url(#SVGID_91_);}
	.st78{fill:url(#SVGID_92_);}
	.st79{fill:url(#SVGID_93_);}
	.st80{fill:none;stroke:url(#SVGID_94_);stroke-miterlimit:10;}
	.st81{fill:none;stroke:url(#SVGID_95_);stroke-miterlimit:10;}
	.st82{fill:url(#SVGID_96_);}
	.st83{fill:url(#SVGID_97_);}
	.st84{fill:url(#SVGID_98_);}
	.st85{fill:url(#SVGID_99_);}
	.st86{fill:url(#SVGID_100_);}
	.st87{fill:url(#SVGID_101_);}
	.st88{fill:url(#SVGID_102_);}
	.st89{fill:url(#SVGID_103_);}
	.st90{fill:none;stroke:url(#SVGID_104_);stroke-miterlimit:10;}
	.st91{fill:url(#SVGID_105_);}
	.st92{fill:url(#SVGID_106_);}
	.st93{fill:url(#SVGID_107_);}
	.st94{fill:url(#SVGID_108_);}
	.st95{fill:url(#SVGID_109_);}
	.st96{fill:url(#SVGID_110_);}
	.st97{fill:url(#SVGID_111_);}
	.st98{fill:url(#SVGID_112_);}
	.st99{fill:url(#SVGID_113_);}
	.st100{fill:url(#SVGID_114_);}
	.st101{fill:url(#SVGID_115_);}
	.st102{fill:url(#SVGID_116_);}
	.st103{fill:url(#SVGID_117_);}
	.st104{fill:url(#SVGID_118_);}
	.st105{fill:url(#SVGID_119_);}
	.st106{fill:url(#SVGID_120_);}
	.st107{fill:url(#SVGID_121_);}
	.st108{fill:url(#SVGID_122_);}
	.st109{fill:url(#SVGID_123_);}
	.st110{fill:url(#SVGID_124_);}
	.st111{fill:url(#SVGID_125_);}
	.st112{fill:url(#SVGID_126_);}
	.st113{fill:url(#SVGID_127_);}
	.st114{fill:url(#SVGID_128_);}
	.st115{fill:url(#SVGID_129_);}
	.st116{fill:url(#SVGID_130_);}
	.st117{fill:url(#SVGID_131_);}
	.st118{fill:none;stroke:#000000;stroke-width:1.633;stroke-miterlimit:10;}
	.st119{fill:url(#SVGID_132_);}
	.st120{fill:url(#SVGID_133_);}
	.st121{fill:url(#SVGID_134_);}
	.st122{fill:url(#SVGID_135_);}
	.st123{fill:url(#SVGID_136_);}
	.st124{fill:url(#SVGID_137_);}
	.st125{fill:url(#SVGID_138_);}
	.st126{fill:url(#SVGID_139_);}
	.st127{fill:url(#SVGID_140_);}
	.st128{fill:url(#SVGID_141_);}
	.st129{fill:url(#SVGID_142_);}
	.st130{fill:url(#SVGID_143_);}
	.st131{fill:#FFFFFF;}
	.st132{fill:url(#SVGID_144_);}
	.st133{fill:url(#SVGID_145_);}
	.st134{fill:url(#SVGID_146_);}
	.st135{fill:url(#SVGID_147_);}
	.st136{fill:url(#SVGID_148_);}
	.st137{fill:url(#SVGID_149_);}
	.st138{fill:url(#SVGID_150_);}
	.st139{stroke:#000000;stroke-width:2;stroke-miterlimit:10;}
	.st140{fill:#434343;}
</style>
<g>
	<circle class="st140" cx="56" cy="57.8" r="50.2"/>
	<g>
		<path class="st131" d="M47,27.5c-2.3,0-4.5,0-6.6,0c-0.3,0-0.7,0.4-1,0.7c-0.1,0.1-0.1,0.4-0.2,0.6c-0.4,0.6-0.6,1.5-1.1,1.7
			c-0.9,0.4-1.2-0.6-1.6-1.3c-0.2-0.3-0.4-0.6-0.7-0.8c-0.7-0.5-1.2-0.2-1.3,0.7c-0.1,1,0.7,2,1.8,2.3c0.3,0.1,0.8,0,1,0.2
			c0.4,0.3,0.8,0.8,0.8,1.1c0,0.4-0.6,0.8-1,1c-0.4,0.2-0.8,0-1.4,0c0,1.4,0,2.7,0,4c0,0.8-0.2,1.5-1.1,1.5c-1,0-1.2-0.7-1.2-1.6
			c0-1-0.1-2,0-3c0.3-2-0.6-3.8-1.4-5.4c-1.3-3-1.2-5.8,0.5-8.6c1.7-2.7,4.3-3.7,7.4-3.5c1,0.1,2.1,0.4,3.1,0.8
			c1.9,0.9,3.9,1.2,5.9,0.6c1.1-0.3,1.6,0.1,1.9,1.1c0.6,2,0.3,3.8-1,5.4c-0.6,0.7-0.7,1.4-0.5,2.2c0.6,3.3,0.5,6.7-0.3,10
			c-0.4,1.9-1.4,3-3.4,3.2c-0.6,0.1-0.9,0.3-1.1,1c-0.1,0.4-0.8,0.9-1.2,0.9c-0.3,0-0.9-0.7-0.9-1.1c0-0.8-0.4-1.2-1-1.5
			c-0.9-0.5-1.6-1.1-2.4-1.8c-0.6-0.5-0.8-1.2-0.1-1.8c0.6-0.6,1.2-0.4,1.7,0.2c1.3,1.4,2.8,2.1,4.7,1.7c0.5-0.1,1.2-0.6,1.3-1
			C47.5,33.9,47.5,30.6,47,27.5z M48.8,21c-1.4,0-2.7,0.2-3.9,0c-1.2-0.2-2.4-0.9-3.6-1.2c-1.1-0.3-2.2-0.4-3.3-0.3
			c-3,0.4-5.3,3.9-4.3,6.8c1.3-0.7,2.6-0.5,3.8,0.4c1.1-1.4,2.5-1.7,4.2-1.4c1.8,0.3,3.6,0,5.2-0.8C48.2,23.8,48.8,22.7,48.8,21z"/>
		<path class="st131" d="M83.5,61.2c-0.1-1-0.6-1.4-1.6-1.2c-0.8,0.2-1.5,0.5-2.3,0.8c-1.1,0.3-2.2,0.6-3.4,1v-8c1,0.4,2,0.7,2.9,1
			c0.5,0.1,1,0.2,1.5,0.1c1.1-0.2,2-1.4,2.1-2.5c0.1-1.1-0.6-2.2-1.8-2.7c-2.6-1.1-5.2-2.1-7.8-3.1c-0.8-0.3-1.4-0.7-1.8-1.7
			c-1-2.5-3.9-3.4-6.4-2.4c-2.4,1-3.5,3.8-2.6,6.2c0.9,2.5,3.7,3.9,6.1,2.9c1.1-0.4,1.9-0.3,2.8,0.1c0.6,0.3,1.2,0.5,1.8,0.7
			c0.6,0.2,0.9,0.6,0.8,1.2c0,2.2,0,4.5,0,6.7c0,2.2,0,2.2-2.2,2.9c-0.6,0.2-0.8,0-1.3-0.4c-0.6-0.6-1.4-1.3-2.2-1.3
			c-4-0.1-8-0.1-12-0.1h-6.8c-0.1-0.5-0.2-0.9-0.2-1.3c-0.2-5.7-2.1-10.9-4.7-15.9c-0.3-0.5-1-1.2-1.5-1.2c-2.8-0.3-5.5-1-8-2.4
			c-1.2-0.6-1.7-0.5-2.2,0.8c-1.7,4.1-3,8.3-3.6,12.6c-1.3,8.9-0.8,17.8-0.5,26.7c0,0.8,0.4,1.3,1.3,1.5c0.3,0,0.8,0.5,0.9,0.8
			c0.9,4.6,2.3,9.2,1.9,14c-0.1,0.8,0.2,1.4,1.1,1.4c0.8,0,1.2-0.6,1.2-1.4c0-2.7,0.1-5.4-0.6-8.1c-0.5-2.2-0.9-4.4-1.3-6.7h13.6
			v13.5c0,0.8,0.2,1.5,1.1,1.5c1,0,1.2-0.7,1.1-1.5c0-0.4,0-0.7,0-1.1c0-5.6,0.1-11.2,0.2-16.8c0-0.4,0.1-1,0.4-1.1
			c0.8-0.4,1.7-0.6,2.7-0.9v20.4c0,0.4-0.1,0.8,0.1,1.1c0.2,0.4,0.7,0.9,1,0.9c0.4,0,0.8-0.5,1.1-0.9c0.1-0.2,0.1-0.6,0.1-0.9
			c0-6.6,0-13.3,0-19.9c0-1,0.3-1.5,1.3-1.8c6.3-1.9,12.7-3.9,19-5.9c1.1-0.3,2.2-0.7,3.5-1v28.4c0,0.4-0.1,0.8,0.1,1.1
			c0.3,0.4,0.7,0.9,1.2,0.9c0.3,0,0.8-0.6,1-1c0.2-0.3,0.1-0.7,0.1-1.1c0-9.2,0-18.4,0-27.6c0-1.2,0.3-1.7,1.5-2
			c1.6-0.3,1.8-0.7,1.8-2.3C83.6,63.3,83.6,62.2,83.5,61.2z M66.8,49.6c-1.4,0-2.5-1.2-2.5-2.6c0-1.5,1.1-2.6,2.6-2.6
			c1.5,0,2.7,1.2,2.6,2.7C69.5,48.4,68.2,49.7,66.8,49.6z M57.8,64.3c0-0.2,0.4-0.6,0.6-0.6c3.2,0,6.3,0,9.5,0.1
			c0.2,0,0.4,0.1,0.5,0.2v0.3c-3.5,1.1-7,2.2-10.7,3.3C57.7,66.3,57.7,65.3,57.8,64.3z M42.7,68.9c-3.6-0.3-6.8-4-6.6-7.9
			c0.1-2.6,0-5.3,0-7.9c0-0.8-0.2-1.4-1.1-1.4c-0.8,0-1.2,0.5-1.2,1.3c0,3.1-0.1,6.3,0.2,9.3c0.4,5,4.7,8.8,9.8,8.9c1,0,1.9,0,3,0
			v8.5H30.9c-0.2-12.4-1.4-24.8,3.6-36.5c2.6,0.6,5.1,1.2,7.7,1.9c0.3,0.1,0.6,0.6,0.8,0.9c2.4,4.8,4.1,9.7,4.1,15.1
			C46,61.5,45,61,44.4,60c-1.2-1.9-0.6-4-0.7-6c-0.1-1,0-2.1-0.1-3.1c-0.1-0.4-0.6-0.9-1-1c-0.3,0-1.1,0.5-1.1,0.8
			c0,3.1-0.6,6.3,0.4,9.4c0.7,2.2,2.6,3.5,4.9,3.6c1.7,0,3.3,0,5,0.1c0.1,0,0.1,0.1,0.3,0.2v5.1c-0.6,0-1.2,0-1.8,0
			C47.8,69,45.3,69.1,42.7,68.9z M79.9,65C70.1,68,60.4,71,50.6,74c-0.4,0.1-0.9,0.2-1.3,0.4c-0.4-1.6-0.4-1.8,1-2.2
			c9.8-3.1,19.6-6.1,29.5-9.2c0.4-0.1,0.9-0.3,1.4-0.4C81.5,64.5,81.5,64.5,79.9,65z"/>
	</g>
</g>
</svg>
