<?xml version="1.0" encoding="utf-8"?>
<!-- Generator: Adobe Illustrator 22.0.1, SVG Export Plug-In . SVG Version: 6.00 Build 0)  -->
<svg version="1.1" id="Layer_1" xmlns="http://www.w3.org/2000/svg" xmlns:xlink="http://www.w3.org/1999/xlink" x="0px" y="0px"
	 viewBox="0 0 84 77" style="enable-background:new 0 0 84 77;" xml:space="preserve">
<style type="text/css">
	.st0{fill:#434343;}
	.st1{fill:#FFFFFF;}
</style>
<g>
	<path class="st0" d="M72,32c-0.1-0.4-0.5-0.4-0.8-0.4c-0.6,0-1.2,0-1.8,0c-5.8-0.1-11.6-0.1-17.5-0.1c-0.4,0-0.7-0.1-0.9-0.5
		c-0.8-2-1.7-4-2.5-6c-2-4.7-4-9.4-6-14.2c-0.1-0.3-0.3-0.6-0.7-0.6s-0.6,0.3-0.7,0.6c-0.5,1.1-0.9,2.3-1.4,3.4
		c-2.3,5.6-4.6,11.3-7,16.9c-0.1,0.3-0.3,0.4-0.6,0.4c-3.6,0.1-7.2,0.1-10.8,0.2c-2.9,0-5.7,0.1-8.6,0.1c-0.4,0-0.7,0.1-0.9,0.5
		c-0.1,0.4,0.1,0.6,0.4,0.9c5.1,4.3,10.2,8.7,15.3,13c0.4,0.3,0.5,0.6,0.3,1.1c-0.6,2.2-1.2,4.4-1.8,6.6c-1.1,3.9-2.1,7.9-3.2,11.8
		c-0.1,0.3-0.2,0.7,0.1,1s0.7,0.1,1-0.1c0.5-0.3,1-0.5,1.5-0.8c0.8-0.4,1.6-0.8,2.3-1.2c0.1,0.1,0.1,0.1,0.1,0.1c0,0.3,0,0.6,0,0.9
		c0,0.6,0.2,0.8,0.8,0.8c3.1,0,6.1,0,9.2,0c3.3,0,6.7,0,10-0.1c2.4,0,4.9,0,7.3,0c0.7,0,0.8-0.2,0.9-0.8c0-0.3,0-0.6,0-1
		c0.2,0.1,0.3,0.1,0.4,0.1c1.2,0.6,2.5,1.2,3.7,1.8c0.3,0.1,0.6,0.2,0.9,0c0.3-0.2,0.3-0.5,0.2-0.8c-0.6-2.5-1.3-5-1.9-7.5
		c-0.9-3.7-1.9-7.4-2.8-11.1c-0.1-0.3-0.1-0.5,0.1-0.8c2.4-2.1,4.8-4.3,7.3-6.5c2.6-2.3,5.1-4.6,7.7-6.9C72,32.7,72.2,32.4,72,32z
		 M42.4,53.5c-0.3,0.2-0.4,0.2-0.7,0c-0.9-0.7-1.7-1.4-2.6-2c-0.4-0.3-0.5-0.6-0.3-1.1c2.1,1.2,4.3,1.2,6.5,0c0.2,0.5,0,0.8-0.4,1.1
		C44.1,52.2,43.3,52.9,42.4,53.5z M42.6,57.5c-0.3,0.4-0.6,0.4-0.8,0c-0.3-0.5-0.2-1,0.4-1.7C42.8,56.6,42.9,57,42.6,57.5z
		 M37.1,47.1c-0.9-1.6-1.1-3.3-1-5c0-0.1,0.1-0.3,0.2-0.3c1.5-1.1,2.5-2.6,3.1-4.4c2.3,2.4,5.2,3.5,8.5,3.2c0.1,2.4,0.2,4.7-1.1,6.7
		C44.4,51.2,39.4,51.1,37.1,47.1z M47.8,37.9c0.1,0.3,0.1,0.7,0.2,1.1c0.1,0.3-0.1,0.4-0.4,0.4c-3.1,0.2-5.7-1-7.7-3.4
		c-0.1-0.1-0.2-0.3-0.3-0.4c-0.4-0.3-0.7-0.1-0.9,0.4c-0.4,0.9-0.7,1.8-1.1,2.6c-0.3,0.6-0.8,1.1-1.2,1.6C36,38,36.9,35.9,38.5,35
		c0.4-0.2,1-0.4,1.5-0.4c1.3-0.1,2.7-0.1,4,0C45.7,34.6,47.3,36,47.8,37.9z M37.3,52.3c0.1-0.2,0.1-0.3,0.2-0.6c1.3,1,2.5,2,3.8,3
		c-0.5,0.9-0.9,1.7-1.4,2.6c-0.2-0.3-0.4-0.6-0.6-0.9c-0.6-0.9-1.2-1.8-1.8-2.7C37.1,53.2,37.1,52.8,37.3,52.3z M46.6,51.7
		c0.2,0.4,0.3,0.7,0.5,1.1c0,0.1,0,0.2,0,0.3c-0.9,1.4-1.8,2.7-2.7,4.2c-0.5-0.9-1-1.7-1.5-2.6C44.1,53.7,45.3,52.7,46.6,51.7z
		 M40.9,59.1c-0.2,1.5-0.4,3.1-0.6,4.6c-0.1,0.4-0.1,0.8-0.2,1.2c0,0.3-0.2,0.4-0.4,0.4c-1.8,0-3.7,0-5.5,0.1
		c-0.3,0-0.4-0.2-0.4-0.5c0-1.2,0-2.5,0-3.7c0-0.3,0-0.6-0.4-0.7c-0.4-0.1-0.7,0.2-0.7,0.7c0,0.7,0,1.5,0,2.2c0,0.5,0,1.1,0,1.6
		c0,0.3-0.1,0.4-0.4,0.4c-0.9,0-1.8,0-2.7,0c-0.1,0-0.3-0.2-0.3-0.3c0-2-0.1-4.1,0.1-6.1c0.4-3,3.3-5.4,6.4-5.5
		c0.2,0,0.4,0.2,0.5,0.3c1,1.5,2,3,3,4.4c0.1,0.1,0.2,0.3,0.3,0.4c0.3,0.4,0.7,0.3,1-0.1c0.1-0.1,0.2-0.3,0.2-0.4c0.1,0,0.1,0,0.2,0
		C40.9,58.5,41,58.8,40.9,59.1z M41.3,65.3c0.3-2,0.6-4,0.8-6h0.1c0.3,2,0.5,4,0.8,6H41.3z M55.1,64.9c0,0.1-0.2,0.3-0.3,0.3
		c-0.9,0-1.9,0-2.8,0c-0.3,0-0.4-0.2-0.4-0.4c0-1.2,0-2.4,0-3.7c0-0.2,0-0.4-0.1-0.6c-0.1-0.1-0.4-0.2-0.6-0.2
		c-0.2,0.1-0.4,0.3-0.4,0.5c-0.1,0.4,0,0.7,0,1.1c0,0.9,0,1.9,0,2.8c0,0.3-0.1,0.4-0.4,0.4c-1.8,0-3.6,0-5.3,0
		c-0.4,0-0.5-0.1-0.5-0.5c-0.2-1.9-0.5-3.8-0.8-5.7c0-0.2,0-0.5,0-0.8c0.1,0,0.2,0,0.2,0c0.7,0.8,0.9,0.8,1.5-0.1
		c0.9-1.5,1.9-2.9,2.8-4.4c0.2-0.3,0.4-0.4,0.7-0.4c3.1,0.1,6.1,2.7,6.4,5.8C55.2,61.2,55.1,63.1,55.1,64.9z"/>
	<path class="st0" d="M23.7,54.3c0.1-0.6,0.3-1.2,0.5-1.9c0.4-1.5,0.7-3,1.1-4.5c0.1-0.3,0-0.5-0.2-0.7c-1.7-1.5-3.4-3-5.1-4.6
		c-0.1-0.1-0.2-0.2-0.3-0.3c-0.2-0.3-0.2-0.6,0-0.8c0.2-0.3,0.5-0.3,0.8-0.1c0.2,0.2,0.5,0.4,0.7,0.6c1.7,1.5,3.5,3.1,5.2,4.6
		c0.3,0.3,0.4,0.6,0.3,1c-0.6,2.3-1.2,4.6-1.7,6.9c-0.1,0.4-0.3,0.6-0.7,0.5C23.9,55,23.7,54.8,23.7,54.3z"/>
	<path class="st0" d="M57.7,47.1c0.1-0.1,0.2-0.4,0.3-0.5c1.9-1.7,3.9-3.5,5.9-5.2c0.2-0.2,0.5-0.2,0.8-0.1c0.2,0,0.3,0.4,0.3,0.5
		c0,0.2-0.2,0.5-0.4,0.6c-1.5,1.3-2.9,2.6-4.4,3.9c-0.3,0.3-0.6,0.5-0.9,0.8c-0.1,0.1-0.2,0.4-0.2,0.6c0.5,2,1,4.1,1.5,6.1
		c0.2,0.7,0.1,1-0.4,1.1s-0.7-0.1-0.9-0.8c-0.5-2.2-1.1-4.3-1.6-6.5C57.8,47.5,57.8,47.3,57.7,47.1z"/>
	<path class="st0" d="M22.7,62.3c-0.6,0-0.9-0.4-0.8-0.8c0.3-1.2,0.6-2.4,0.9-3.6c0.1-0.4,0.4-0.5,0.7-0.5c0.4,0.1,0.6,0.4,0.5,0.7
		c-0.3,1.2-0.6,2.5-0.9,3.7C23.1,62.1,22.8,62.2,22.7,62.3z"/>
	<path class="st0" d="M62.7,61.6c-0.2,0.2-0.3,0.4-0.6,0.5c-0.4,0.1-0.7-0.1-0.8-0.5c-0.2-0.8-0.4-1.6-0.6-2.5
		c-0.1-0.4-0.2-0.8-0.3-1.1c-0.1-0.4,0.1-0.6,0.5-0.7c0.3-0.1,0.7,0,0.7,0.3C62,58.9,62.3,60.2,62.7,61.6z"/>
</g>
</svg>
